[
  {
    "id": 1,
    "client_id": "190989609-8",
    "username": "dgreville0",
    "mount_point": null,
    "publish_acl": [],
    "subscribe_acl": []
  },
  {
    "id": 2,
    "client_id": "250370720-3",
    "username": "crobelet1",
    "mount_point": null,
    "publish_acl": [
      {
        "id": "54f2dab0-6e05-490d-ab73-54e529cff0e9",
        "topic": "$SYS/broker/clients/total",
        "qos": 0
      },
      {
        "id": "2d5c064d-1b7a-4e37-b378-7e023cad7fae",
        "topic": "$SYS/broker/clients/disconnected",
        "qos": 2
      }
    ],
    "subscribe_acl": [
      {
        "id": "081ab2c0-300d-4219-b022-68e628fdfc76",
        "topic": "$SYS/broker/messages/stored",
        "qos": 1
      },
      {
        "id": "4466c75a-7921-4134-bca0-8aa58e0df072",
        "topic": "$SYS/broker/clients/maximum",
        "qos": 2
      },
      {
        "id": "6c070d14-6867-4c91-bd3a-c0d5a0b1ea6f",
        "topic": "$SYS/broker/load/bytes/received",
        "qos": 1
      },
      {
        "id": "35cf6e9d-061c-4512-ab8a-e8bcfec53984",
        "topic": "$SYS/broker/load/messages/sent/+",
        "qos": 2
      },
      {
        "id": "c8e96573-dfd8-4d08-9cb7-0642c0738a33",
        "topic": "$SYS/broker/messages/publish/received",
        "qos": 1
      }
    ]
  },
  {
    "id": 3,
    "client_id": "207800061-2",
    "username": "mcraven2",
    "mount_point": "/pen.io",
    "publish_acl": [
      {
        "id": "5c7f54d4-d079-47fd-8f9d-d538297e6ead",
        "topic": "$SYS/broker/messages/publish/dropped",
        "qos": 1
      },
      {
        "id": "e12de04f-a6d3-440d-9e85-c123cd9aa4c5",
        "topic": "$SYS/broker/clients/total",
        "qos": 1
      }
    ],
    "subscribe_acl": [
      {
        "id": "a9f935ee-2596-421e-9477-8fbb30cd2342",
        "topic": "$SYS/broker/clients/disconnected",
        "qos": 1
      },
      {
        "id": "c09fb959-abdb-4287-90d1-ca97d4765bf7",
        "topic": "$SYS/broker/messages/publish/dropped",
        "qos": 1
      },
      {
        "id": "c400248f-0fb4-4910-8f73-6a17c8049327",
        "topic": "$SYS/broker/clients/connected",
        "qos": 2
      }
    ]
  },
  {
    "id": 4,
    "client_id": "317276551-2",
    "username": "ahackley3",
    "mount_point": null,
    "publish_acl": [
      {
        "id": "5f0c962c-6956-4a98-a1bc-b4fc8ea21e51",
        "topic": "$SYS/broker/load/messages/received/+",
        "qos": 0
      },
      {
        "id": "419c1368-f398-4ec1-beed-11539552752a",
        "topic": "$SYS/clients/[client-id]/ip",
        "qos": 1
      },
      {
        "id": "76cc9f90-90c0-43ff-ac48-2c9024eb0fbb",
        "topic": "$SYS/broker/load/bytes/sent/+",
        "qos": 1
      }
    ],
    "subscribe_acl": []
  },
  {
    "id": 5,
    "client_id": "631963463-4",
    "username": "dsarver4",
    "mount_point": null,
    "publish_acl": [
      {
        "id": "e7693ec5-adc6-49a9-854e-ed98b2ff6239",
        "topic": "$SYS/broker/bridge/#",
        "qos": 0
      },
      {
        "id": "2b593b6b-73a7-4e20-8a1b-d995230f83d8",
        "topic": "$SYS/broker/messages/received",
        "qos": 0
      },
      {
        "id": "618b1cf6-3714-4181-918a-d7d41ad2c520",
        "topic": "$SYS/broker/messages/sent",
        "qos": 2
      },
      {
        "id": "ef542112-44eb-4f50-aaf0-c30d73835c05",
        "topic": "$SYS/broker/load/publish/dropped/+",
        "qos": 1
      }
    ],
    "subscribe_acl": [
      {
        "id": "c89b298c-06f7-4b32-aa8e-4d7bb9c2a4ea",
        "topic": "$SYS/clients/[client-id]/connectedtime",
        "qos": 2
      },
      {
        "id": "cdbcc761-351d-4444-84c9-24ef2125e146",
        "topic": "$SYS/clients/[client-id]/connectedtime",
        "qos": 0
      }
    ]
  },
  {
    "id": 6,
    "client_id": "557255068-X",
    "username": "jkingstne5",
    "mount_point": "/liveinternet.ru",
    "publish_acl": [
      {
        "id": "75f3db03-1a64-4d81-8246-7a004fb3213d",
        "topic": "$SYS/broker/load/publish/dropped/+",
        "qos": 1
      }
    ],
    "subscribe_acl": [
      {
        "id": "04ac9bea-a7fd-4465-9bf5-df6caa47f206",
        "topic": "$SYS/broker/clients/total",
        "qos": 0
      },
      {
        "id": "209854a6-62b5-4a5d-a97d-964702130a56",
        "topic": "$SYS/broker/load/bytes/sent/+",
        "qos": 0
      },
      {
        "id": "34294dd6-1565-4421-b618-6bd0458f35ad",
        "topic": "$SYS/broker/messages/received",
        "qos": 1
      },
      {
        "id": "57f48666-3e4e-4fc0-bd6a-5dd98d5fcab6",
        "topic": "myhome/groundfloor/livingroom/temperature",
        "qos": 2
      }
    ]
  },
  {
    "id": 7,
    "client_id": "745538990-6",
    "username": "mgammill6",
    "mount_point": "/yelp.com",
    "publish_acl": [
      {
        "id": "48b98253-b262-4fa0-852f-eefe6526ceee",
        "topic": "$SYS/clients/[client-id]/connectedtime",
        "qos": 1
      },
      {
        "id": "3cae1e42-cb6a-43df-9b47-31eca8ac6e79",
        "topic": "$SYS/broker/messages/publish/sent",
        "qos": 0
      }
    ],
    "subscribe_acl": [
      {
        "id": "5a3be9db-18ad-43a0-959c-e3123141e80a",
        "topic": "$SYS/broker/messages/publish/received",
        "qos": 2
      },
      {
        "id": "2b2065ad-cbfd-431c-986d-a2f7db610515",
        "topic": "$SYS/broker/load/publish/sent/+",
        "qos": 2
      },
      {
        "id": "dbeca342-54bb-4185-b747-fa6014e956da",
        "topic": "$SYS/broker/load/publish/sent/+",
        "qos": 1
      },
      {
        "id": "6b6bce71-8852-49e1-b44f-0d5900152524",
        "topic": "$SYS/broker/load/bytes/received/+",
        "qos": 1
      },
      {
        "id": "726ff9dc-676c-4dec-a33f-5ac485099618",
        "topic": "$SYS/broker/clients/connected",
        "qos": 2
      }
    ]
  },
  {
    "id": 8,
    "client_id": "064893718-6",
    "username": "mmohammed7",
    "mount_point": "/latimes.com",
    "publish_acl": [
      {
        "id": "58100565-8e18-42e9-9e42-001d83717888",
        "topic": "$SYS/broker/uptime",
        "qos": 1
      }
    ],
    "subscribe_acl": [
      {
        "id": "56d3ed54-2781-4088-8d61-500a1ee91665",
        "topic": "$SYS/broker/load/bytes/sent",
        "qos": 2
      },
      {
        "id": "b8b6ac61-3cd3-4b4a-ba14-07eaa4294aeb",
        "topic": "Germany/Bavaria/car/2382340923453/latitude",
        "qos": 1
      },
      {
        "id": "9cf37d72-ac74-48f5-bed0-7b07cfeff114",
        "topic": "$SYS/broker/load/publish/dropped/+",
        "qos": 1
      },
      {
        "id": "609cacec-d854-4200-bfbf-fbd1b151e6e3",
        "topic": "$SYS/broker/messages/received",
        "qos": 0
      }
    ]
  },
  {
    "id": 9,
    "client_id": "989813788-6",
    "username": "rfinlason8",
    "mount_point": null,
    "publish_acl": [
      {
        "id": "17508c78-ee45-4a2e-8597-bde6f67908cd",
        "topic": "$SYS/clients/[client-id]/connectedtime",
        "qos": 1
      },
      {
        "id": "f9812d6a-9a43-4c00-b213-874b546ed191",
        "topic": "$SYS/broker/subscriptions/count",
        "qos": 2
      }
    ],
    "subscribe_acl": [
      {
        "id": "492fbcd2-fb56-48a4-898a-eaca23e6ae8a",
        "topic": "$SYS/broker/clients/maximum",
        "qos": 2
      },
      {
        "id": "7c054e69-14b3-4b2f-9ffc-016e6343f3ee",
        "topic": "$SYS/broker/uptime",
        "qos": 0
      },
      {
        "id": "6110e47d-92c7-44c8-82fd-e01aae7bed29",
        "topic": "$SYS/broker/load/bytes/sent",
        "qos": 1
      },
      {
        "id": "2d456b7b-cbc2-47eb-8d04-d7593c2eb6cb",
        "topic": "$SYS/broker/clients/total",
        "qos": 2
      }
    ]
  },
  {
    "id": 10,
    "client_id": "082740945-1",
    "username": "gdunseath9",
    "mount_point": null,
    "publish_acl": [
      {
        "id": "af5e4cf9-188d-4b6d-aaa6-62e5b529a4c7",
        "topic": "$SYS/broker/clients/disconnected",
        "qos": 0
      },
      {
        "id": "a23d29ad-d74e-4c21-a75a-014f3c177f45",
        "topic": "$SYS/broker/changeset",
        "qos": 0
      },
      {
        "id": "c84bc3f2-9647-4906-bb54-22b9645a5897",
        "topic": "$SYS/broker/uptime",
        "qos": 2
      },
      {
        "id": "4f96e914-d88e-4c8c-98aa-916a3218d239",
        "topic": "$SYS/broker/version",
        "qos": 2
      },
      {
        "id": "2a013872-b3bc-4520-a1b7-abd2cd3ee106",
        "topic": "$SYS/broker/clients/connected",
        "qos": 2
      }
    ],
    "subscribe_acl": [
      {
        "id": "1d1ed63f-7d08-40fa-a1d6-7cbfe9750d7c",
        "topic": "USA/California/San Francisco/Silicon Valley",
        "qos": 0
      },
      {
        "id": "30c6db39-6969-41d9-8515-4def20e8df31",
        "topic": "$SYS/clients/[client-id]/connectedtime",
        "qos": 2
      },
      {
        "id": "36d10f7b-ae87-4b1b-8804-546c729cf8c0",
        "topic": "$SYS/broker/load/connections/+",
        "qos": 0
      }
    ]
  },
  {
    "id": 11,
    "client_id": "966073783-1",
    "username": "cplimmera",
    "mount_point": "/ovh.net",
    "publish_acl": [
      {
        "id": "b0b4cc66-1e57-45b9-bfd7-ba364716f6c4",
        "topic": "$SYS/broker/subscriptions/count",
        "qos": 2
      },
      {
        "id": "2de2cdba-13b5-4724-8a10-82a6435275e2",
        "topic": "USA/California/San Francisco/Silicon Valley",
        "qos": 1
      },
      {
        "id": "0e969e0f-ce6f-4c4f-8748-7aa2ba7da52c",
        "topic": "$SYS/broker/clients/disconnected",
        "qos": 2
      }
    ],
    "subscribe_acl": []
  },
  {
    "id": 12,
    "client_id": "890262772-1",
    "username": "rmceneryb",
    "mount_point": null,
    "publish_acl": [],
    "subscribe_acl": [
      {
        "id": "fd7c99f3-a530-49a1-a6fe-3d490d34d0db",
        "topic": "$SYS/broker/clients/connected",
        "qos": 1
      },
      {
        "id": "3604e6c7-74ad-42ab-8765-030ce24aaef2",
        "topic": "$SYS/broker/clients/total",
        "qos": 0
      }
    ]
  },
  {
    "id": 13,
    "client_id": "805013586-1",
    "username": "bhalsoc",
    "mount_point": "/sina.com.cn",
    "publish_acl": [
      {
        "id": "974817e7-86ec-4eaa-8816-b9ce3c00c45d",
        "topic": "$SYS/broker/messages/publish/received",
        "qos": 0
      },
      {
        "id": "c651f6b2-0926-47d8-91d6-1ca55aa7597c",
        "topic": "$SYS/broker/load/messages/received/+",
        "qos": 1
      },
      {
        "id": "7ac81330-4a8f-4ce9-b152-89b2b0309478",
        "topic": "$SYS/broker/load/bytes/received",
        "qos": 1
      }
    ],
    "subscribe_acl": [
      {
        "id": "6335228d-a397-4edb-ae39-c80d1d08c626",
        "topic": "$SYS/broker/messages/stored",
        "qos": 2
      },
      {
        "id": "2a2ae262-a815-4c19-a5dc-5e683817f76c",
        "topic": "$SYS/broker/messages/publish/sent",
        "qos": 2
      },
      {
        "id": "41388dff-8948-4816-b8c8-3bdfc6fd9f25",
        "topic": "$SYS/broker/load/messages/sent/+",
        "qos": 0
      },
      {
        "id": "b7cad3b0-99da-4760-ae9f-c8f4e114bb97",
        "topic": "$SYS/broker/messages/sent",
        "qos": 0
      }
    ]
  },
  {
    "id": 14,
    "client_id": "499612708-2",
    "username": "hpetherickd",
    "mount_point": "/acquirethisname.com",
    "publish_acl": [
      {
        "id": "9b4fadde-ca92-41cb-b017-bc10654624aa",
        "topic": "$SYS/broker/version",
        "qos": 1
      }
    ],
    "subscribe_acl": [
      {
        "id": "ef07595c-e14c-427b-919e-284fd4adc75c",
        "topic": "$SYS/broker/messages/sent",
        "qos": 1
      },
      {
        "id": "906b809b-e23d-4634-8433-e2166ed6b241",
        "topic": "$SYS/broker/load/publish/dropped/+",
        "qos": 0
      }
    ]
  },
  {
    "id": 15,
    "client_id": "866035655-1",
    "username": "kcatterelle",
    "mount_point": "/photobucket.com",
    "publish_acl": [],
    "subscribe_acl": [
      {
        "id": "fe9e06ee-0400-47bb-86bc-d86b36b0f768",
        "topic": "$SYS/broker/messages/stored",
        "qos": 1
      },
      {
        "id": "cc6cdea2-c1a4-4acd-ac85-3255a6b0099a",
        "topic": "myhome/groundfloor/livingroom/temperature",
        "qos": 0
      },
      {
        "id": "0f976385-1e0f-4a47-8619-77fa1e2ebed5",
        "topic": "$SYS/broker/clients/total",
        "qos": 1
      }
    ]
  },
  {
    "id": 16,
    "client_id": "352867091-6",
    "username": "rlanfaref",
    "mount_point": null,
    "publish_acl": [
      {
        "id": "b0b422c6-d570-4931-b12e-48e4a4f34763",
        "topic": "$SYS/broker/timestamp",
        "qos": 2
      },
      {
        "id": "d77e2714-fc1c-4ce8-a96c-05ab36e14971",
        "topic": "Germany/Bavaria/car/2382340923453/latitude",
        "qos": 1
      },
      {
        "id": "6aff86ad-8dbc-429d-8a6a-ddcef8c02f3d",
        "topic": "$SYS/broker/version",
        "qos": 0
      },
      {
        "id": "04c15bd5-1c4f-46e6-8663-8b7d94efc89f",
        "topic": "$SYS/broker/load/messages/sent/+",
        "qos": 0
      },
      {
        "id": "0757bf20-91b4-4253-ad52-47308b57b9f3",
        "topic": "$SYS/broker/load/publish/dropped/+",
        "qos": 1
      }
    ],
    "subscribe_acl": [
      {
        "id": "52982864-66f9-4515-93c5-7da238f64cee",
        "topic": "Germany/Bavaria/car/2382340923453/latitude",
        "qos": 0
      },
      {
        "id": "7adabe33-ddfa-4652-89e7-6feecffdd116",
        "topic": "$SYS/broker/load/bytes/received/+",
        "qos": 1
      }
    ]
  },
  {
    "id": 17,
    "client_id": "427060344-5",
    "username": "mdwerryhouseg",
    "mount_point": "/blogs.com",
    "publish_acl": [
      {
        "id": "7a82314a-4e6d-4d7f-809b-7b8f33f0d550",
        "topic": "$SYS/broker/load/connections/+",
        "qos": 2
      },
      {
        "id": "dddb5621-08c4-4876-b4cf-3588fbac6d0f",
        "topic": "$SYS/broker/messages/publish/received",
        "qos": 2
      },
      {
        "id": "d46eec0f-1e6b-448d-99d6-4b7822b6d5bf",
        "topic": "$SYS/broker/messages/publish/dropped",
        "qos": 2
      },
      {
        "id": "79bc5dcd-8855-4986-aabb-fd15ce6ce548",
        "topic": "$SYS/broker/load/messages/sent/+",
        "qos": 1
      },
      {
        "id": "03db99a5-29a4-4b70-a871-ab6d042581fd",
        "topic": "$SYS/clients/[client-id]/ip",
        "qos": 0
      }
    ],
    "subscribe_acl": [
      {
        "id": "9ce7d290-414f-4d65-a154-a13a9adc0db3",
        "topic": "5ff4a2ce-e485-40f4-826c-b1a5d81be9b6/status",
        "qos": 0
      },
      {
        "id": "f17eb71b-4e37-4197-8f18-72f5df36549b",
        "topic": "$SYS/broker/load/messages/sent/+",
        "qos": 0
      }
    ]
  },
  {
    "id": 18,
    "client_id": "945388871-0",
    "username": "kgoalleyh",
    "mount_point": "/hugedomains.com",
    "publish_acl": [
      {
        "id": "bee47f4e-e376-432f-ba2f-eff75cfa63d7",
        "topic": "$SYS/broker/clients/disconnected",
        "qos": 2
      },
      {
        "id": "3d7f5b3a-4452-4338-afdb-6947e49825b1",
        "topic": "$SYS/broker/time",
        "qos": 1
      }
    ],
    "subscribe_acl": [
      {
        "id": "bca53c61-4f1b-4811-a784-9f4f0ba16685",
        "topic": "$SYS/broker/changeset",
        "qos": 2
      },
      {
        "id": "a034cd27-4b80-471e-93fe-99b4e5547c61",
        "topic": "5ff4a2ce-e485-40f4-826c-b1a5d81be9b6/status",
        "qos": 2
      },
      {
        "id": "72d113a0-a5db-4695-8dd6-009881329a85",
        "topic": "$SYS/broker/load/bytes/sent",
        "qos": 1
      }
    ]
  },
  {
    "id": 19,
    "client_id": "915302939-9",
    "username": "eludlowi",
    "mount_point": null,
    "publish_acl": [],
    "subscribe_acl": [
      {
        "id": "017b295e-359d-4fd4-94a7-c164a89032dd",
        "topic": "$SYS/broker/clients/disconnected",
        "qos": 0
      },
      {
        "id": "1d25041c-1f18-405c-99dd-08e0b1a6fd66",
        "topic": "$SYS/broker/messages/publish/dropped",
        "qos": 1
      },
      {
        "id": "0a82c844-b7d9-4dc1-9571-fd3324219e08",
        "topic": "$SYS/broker/clients/connected",
        "qos": 2
      }
    ]
  },
  {
    "id": 20,
    "client_id": "201177888-3",
    "username": "jblockleyj",
    "mount_point": null,
    "publish_acl": [],
    "subscribe_acl": [
      {
        "id": "67106c03-8c58-4558-8e2c-5e65ad02a84e",
        "topic": "$SYS/broker/messages/publish/received",
        "qos": 1
      },
      {
        "id": "b5c5c375-07a8-4138-8dc0-c584dfd9d750",
        "topic": "$SYS/broker/subscriptions/count",
        "qos": 0
      },
      {
        "id": "79ca4c09-87f4-4533-9f6c-292f28272170",
        "topic": "$SYS/broker/load/bytes/received",
        "qos": 1
      },
      {
        "id": "276f9885-1906-4e6e-a392-b06060b6974d",
        "topic": "$SYS/broker/messages/received",
        "qos": 1
      },
      {
        "id": "3b630148-565d-4046-9e11-2c8bfec7babd",
        "topic": "$SYS/broker/messages/sent",
        "qos": 1
      }
    ]
  },
  {
    "id": 21,
    "client_id": "042536543-3",
    "username": "dhorryk",
    "mount_point": "/msu.edu",
    "publish_acl": [
      {
        "id": "02c448a3-c55d-4c80-8ba5-94cc6769b477",
        "topic": "$SYS/broker/clients/connected",
        "qos": 1
      },
      {
        "id": "95f4bbf8-8b5b-48cf-ab5a-c60e9cd676fe",
        "topic": "$SYS/broker/clients/disconnected",
        "qos": 0
      },
      {
        "id": "ed130e31-edc9-4616-b114-e56ecd75b081",
        "topic": "$SYS/broker/load/bytes/sent/+",
        "qos": 1
      },
      {
        "id": "aa43bb9b-5989-4016-8e70-ae89adb27132",
        "topic": "$SYS/broker/load/publish/sent/+",
        "qos": 2
      },
      {
        "id": "9dd1d33e-5df8-4eb7-8891-d16ee1ac92ea",
        "topic": "$SYS/clients/[client-id]/ip",
        "qos": 0
      }
    ],
    "subscribe_acl": [
      {
        "id": "10713ca0-5831-4efa-ade3-9dc95d3ebf15",
        "topic": "$SYS/broker/load/connections/+",
        "qos": 2
      },
      {
        "id": "005fb64a-b18e-4c7a-b77f-ef0ac4e22f51",
        "topic": "$SYS/broker/uptime",
        "qos": 2
      }
    ]
  },
  {
    "id": 22,
    "client_id": "976067227-8",
    "username": "vallainl",
    "mount_point": null,
    "publish_acl": [
      {
        "id": "0fabd447-5cb0-42f8-9812-fd0d81bc2304",
        "topic": "myhome/groundfloor/livingroom/temperature",
        "qos": 2
      },
      {
        "id": "3c6a3101-444f-4ebd-8996-9ae28c4a5606",
        "topic": "$SYS/broker/clients/disconnected",
        "qos": 0
      },
      {
        "id": "32bad582-1c00-435c-972e-fab49f04ae8e",
        "topic": "$SYS/broker/version",
        "qos": 2
      }
    ],
    "subscribe_acl": [
      {
        "id": "9139dcbb-7af6-4c10-9356-5649562deafe",
        "topic": "$SYS/broker/messages/retained/count",
        "qos": 0
      },
      {
        "id": "41d4a371-918b-41e4-b6da-29fd741d87cd",
        "topic": "$SYS/broker/load/publish/received/+",
        "qos": 0
      },
      {
        "id": "214e0d0c-2725-4e97-be56-f3f79e426627",
        "topic": "$SYS/broker/clients/connected",
        "qos": 1
      },
      {
        "id": "2761e58e-cf80-4cb3-bcca-5a1260881542",
        "topic": "5ff4a2ce-e485-40f4-826c-b1a5d81be9b6/status",
        "qos": 0
      }
    ]
  },
  {
    "id": 23,
    "client_id": "016146381-9",
    "username": "meddinsm",
    "mount_point": "/elegantthemes.com",
    "publish_acl": [
      {
        "id": "621784af-9ac6-4c0c-bd4a-7e4fd43e8f90",
        "topic": "$SYS/broker/messages/retained/count",
        "qos": 0
      },
      {
        "id": "93a6dfec-5f5e-42c5-89d0-f8ccc8f61c60",
        "topic": "$SYS/broker/load/messages/received/+",
        "qos": 2
      }
    ],
    "subscribe_acl": [
      {
        "id": "4ab9be68-bbc5-42f1-9a4d-5b62f4222a04",
        "topic": "$SYS/broker/uptime",
        "qos": 1
      },
      {
        "id": "c29fffed-fef5-491a-abdf-fc013d76607b",
        "topic": "USA/California/San Francisco/Silicon Valley",
        "qos": 1
      },
      {
        "id": "340cc023-a15d-4712-a55e-f83ee7c59ba1",
        "topic": "$SYS/broker/load/publish/dropped/+",
        "qos": 0
      },
      {
        "id": "f8dd64e4-620f-4a47-8c9f-7e1a813d54d5",
        "topic": "$SYS/broker/messages/sent",
        "qos": 2
      }
    ]
  },
  {
    "id": 24,
    "client_id": "273200295-X",
    "username": "hsikorskin",
    "mount_point": null,
    "publish_acl": [
      {
        "id": "59023b7f-6bb0-452b-8937-d287501cb8b9",
        "topic": "$SYS/broker/messages/publish/received",
        "qos": 1
      },
      {
        "id": "fb8a3626-4792-4a35-9173-fbd29a4c4a72",
        "topic": "$SYS/broker/load/connections/+",
        "qos": 0
      }
    ],
    "subscribe_acl": [
      {
        "id": "78a0574c-d542-4239-955f-7fc4e8757659",
        "topic": "$SYS/broker/messages/publish/sent",
        "qos": 0
      },
      {
        "id": "a8a46ba8-7089-40f0-8f2a-6b73e0ba017a",
        "topic": "$SYS/broker/messages/inflight",
        "qos": 2
      }
    ]
  },
  {
    "id": 25,
    "client_id": "498323173-0",
    "username": "cnunnerleyo",
    "mount_point": "/domainmarket.com",
    "publish_acl": [
      {
        "id": "9e471d25-ec84-4cde-b565-53163c6779d0",
        "topic": "$SYS/broker/load/connections/+",
        "qos": 2
      },
      {
        "id": "ee63bab7-d2a8-4ec9-ad6d-9db997c1512c",
        "topic": "$SYS/broker/time",
        "qos": 0
      },
      {
        "id": "25ab8afc-c5ac-4fb4-8c56-3676961d714d",
        "topic": "$SYS/broker/messages/publish/received",
        "qos": 0
      },
      {
        "id": "29c070ee-9d0d-4ce3-9642-48970a116409",
        "topic": "$SYS/broker/clients/total",
        "qos": 0
      },
      {
        "id": "f4a2fa50-26b8-4eb1-b276-b3f9101cddd4",
        "topic": "$SYS/broker/messages/inflight",
        "qos": 1
      }
    ],
    "subscribe_acl": [
      {
        "id": "34f0a1d6-f518-4805-ba18-5a1177f70047",
        "topic": "$SYS/broker/load/publish/dropped/+",
        "qos": 1
      },
      {
        "id": "e2afd608-58de-4036-a16d-5ca5f7b1a252",
        "topic": "Germany/Bavaria/car/2382340923453/latitude",
        "qos": 2
      },
      {
        "id": "b783b121-fc96-4541-abe3-8d03a245c3f0",
        "topic": "USA/California/San Francisco/Silicon Valley",
        "qos": 1
      },
      {
        "id": "e72de75c-3737-4364-bc28-8b87c5e5c595",
        "topic": "$SYS/broker/changeset",
        "qos": 0
      },
      {
        "id": "3d1dccf9-5085-47da-96ff-0d3e2b2c9b18",
        "topic": "$SYS/broker/messages/stored",
        "qos": 0
      }
    ]
  },
  {
    "id": 26,
    "client_id": "533572284-3",
    "username": "etorbeckp",
    "mount_point": "/w3.org",
    "publish_acl": [
      {
        "id": "b1c80667-9689-47cb-9288-d8f42064c04b",
        "topic": "$SYS/clients/[client-id]/ip",
        "qos": 1
      },
      {
        "id": "1beba8de-d249-4b39-97fe-30f7972110a6",
        "topic": "$SYS/broker/load/publish/dropped/+",
        "qos": 2
      }
    ],
    "subscribe_acl": [
      {
        "id": "7540ccae-7fe8-4b18-93f2-b4506b1c22d9",
        "topic": "$SYS/broker/load/messages/sent/+",
        "qos": 0
      },
      {
        "id": "5738a1b8-d2c9-423d-98d1-537a9bf6ffaa",
        "topic": "$SYS/broker/clients/connected",
        "qos": 1
      }
    ]
  },
  {
    "id": 27,
    "client_id": "147825968-X",
    "username": "lwhenmanq",
    "mount_point": null,
    "publish_acl": [],
    "subscribe_acl": [
      {
        "id": "b752e805-263d-42cb-a0a0-6aeedf05e516",
        "topic": "$SYS/broker/load/bytes/sent",
        "qos": 2
      },
      {
        "id": "1506cb18-729b-453e-afc0-ff5dfb8896ae",
        "topic": "$SYS/broker/load/bytes/sent/+",
        "qos": 1
      },
      {
        "id": "7b92eba0-a7ca-4485-88da-4369266f2486",
        "topic": "$SYS/broker/clients/maximum",
        "qos": 1
      }
    ]
  },
  {
    "id": 28,
    "client_id": "354344501-4",
    "username": "tglancyr",
    "mount_point": null,
    "publish_acl": [
      {
        "id": "9c1be094-9806-485b-a9bf-22f6f01fcd64",
        "topic": "$SYS/broker/load/sockets/+",
        "qos": 1
      },
      {
        "id": "091533dd-53d3-40ef-a4c7-60dc23165676",
        "topic": "$SYS/broker/clients/disconnected",
        "qos": 1
      }
    ],
    "subscribe_acl": [
      {
        "id": "c7d02cd5-ca36-4e72-bdb9-d4f8ba26750f",
        "topic": "$SYS/broker/messages/retained/count",
        "qos": 2
      }
    ]
  },
  {
    "id": 29,
    "client_id": "850892214-0",
    "username": "bchatts",
    "mount_point": "/vimeo.com",
    "publish_acl": [],
    "subscribe_acl": []
  },
  {
    "id": 30,
    "client_id": "340376581-4",
    "username": "mhulbertt",
    "mount_point": null,
    "publish_acl": [
      {
        "id": "2d082d60-9b20-4164-83ed-802332b0b74d",
        "topic": "$SYS/broker/version",
        "qos": 2
      },
      {
        "id": "77f32338-6ef5-49e1-97e7-1579b1142188",
        "topic": "$SYS/broker/messages/stored",
        "qos": 2
      },
      {
        "id": "4717caa4-4c95-46f6-b5f7-cd0eda300815",
        "topic": "$SYS/broker/clients/maximum",
        "qos": 2
      },
      {
        "id": "f0cc66de-7227-4f94-b2a8-13f27f2b4c54",
        "topic": "USA/California/San Francisco/Silicon Valley",
        "qos": 0
      },
      {
        "id": "6d73ac04-ee5d-49ed-9b87-1487dee37eae",
        "topic": "$SYS/broker/messages/retained/count",
        "qos": 2
      }
    ],
    "subscribe_acl": [
      {
        "id": "601f2d99-1ed4-42b7-bdcb-10451f37a6e3",
        "topic": "$SYS/broker/version",
        "qos": 0
      },
      {
        "id": "9994c939-9cc2-4603-9200-2c8b418f865f",
        "topic": "$SYS/broker/uptime",
        "qos": 2
      },
      {
        "id": "778527e2-7922-464a-9734-64c1b0cf626f",
        "topic": "5ff4a2ce-e485-40f4-826c-b1a5d81be9b6/status",
        "qos": 0
      }
    ]
  },
  {
    "id": 31,
    "client_id": "471927047-6",
    "username": "lshellyu",
    "mount_point": null,
    "publish_acl": [
      {
        "id": "7d50810d-b7e6-44ea-b4fb-25b60cc547d8",
        "topic": "$SYS/broker/messages/inflight",
        "qos": 1
      },
      {
        "id": "3ac75fe9-9374-4bb7-b800-a7d02785669a",
        "topic": "$SYS/broker/load/messages/received/+",
        "qos": 1
      }
    ],
    "subscribe_acl": [
      {
        "id": "b78d5494-dbfc-405c-9962-6eb64c3ca3a3",
        "topic": "$SYS/broker/load/publish/sent/+",
        "qos": 1
      },
      {
        "id": "3aceda3c-6757-4b88-b3f3-ce8c88875aa2",
        "topic": "Germany/Bavaria/car/2382340923453/latitude",
        "qos": 1
      },
      {
        "id": "fc1fd253-dafa-40f7-aaa8-b7168ff28c6b",
        "topic": "$SYS/broker/messages/publish/received",
        "qos": 0
      },
      {
        "id": "cd3e15cf-cefe-4237-9ded-b251e21b7992",
        "topic": "$SYS/broker/messages/inflight",
        "qos": 2
      }
    ]
  },
  {
    "id": 32,
    "client_id": "856927308-8",
    "username": "jupexv",
    "mount_point": "/geocities.com",
    "publish_acl": [
      {
        "id": "5259ea6c-96e0-4ec4-97fc-083e5f081e25",
        "topic": "$SYS/broker/load/publish/sent/+",
        "qos": 2
      },
      {
        "id": "a38704da-4550-42e5-8ae0-2f21529c837d",
        "topic": "$SYS/broker/subscriptions/count",
        "qos": 1
      },
      {
        "id": "f809887a-f305-4e1c-a1f1-35d0ccfb90a0",
        "topic": "$SYS/clients/[client-id]/ip",
        "qos": 0
      }
    ],
    "subscribe_acl": [
      {
        "id": "05ab1e47-a65e-44d4-bb59-24b2ac60f496",
        "topic": "$SYS/broker/load/messages/sent/+",
        "qos": 0
      },
      {
        "id": "b7bdba21-98f5-4891-98df-3e5a3705c5c9",
        "topic": "$SYS/broker/load/sockets/+",
        "qos": 2
      }
    ]
  },
  {
    "id": 33,
    "client_id": "160835170-X",
    "username": "rpeetermannw",
    "mount_point": "/godaddy.com",
    "publish_acl": [
      {
        "id": "7646394c-955c-46ab-9373-5c6767892f2b",
        "topic": "$SYS/broker/clients/connected",
        "qos": 1
      },
      {
        "id": "1f2fbf14-0ded-4050-81d6-b172ba7e4d65",
        "topic": "$SYS/broker/messages/publish/sent",
        "qos": 2
      }
    ],
    "subscribe_acl": [
      {
        "id": "dc9e54df-1b40-453e-b454-b79c33190a06",
        "topic": "$SYS/broker/messages/inflight",
        "qos": 1
      },
      {
        "id": "1f99715f-1860-4380-b48f-6a0c6bab5619",
        "topic": "$SYS/broker/load/messages/received/+",
        "qos": 2
      },
      {
        "id": "3f427741-5d04-4c69-94f3-619122f45fd7",
        "topic": "$SYS/broker/clients/total",
        "qos": 1
      },
      {
        "id": "97b4eaf4-eee0-47de-8ebc-477b61bb6fdc",
        "topic": "$SYS/broker/load/publish/sent/+",
        "qos": 1
      },
      {
        "id": "d4e0b457-43c0-4084-8fa1-4a6a44d363c1",
        "topic": "$SYS/broker/clients/maximum",
        "qos": 1
      }
    ]
  },
  {
    "id": 34,
    "client_id": "148696651-9",
    "username": "cgounetx",
    "mount_point": "/latimes.com",
    "publish_acl": [
      {
        "id": "3887cf3e-59af-4da9-874d-ebd087a05fe6",
        "topic": "$SYS/clients/[client-id]/connectedtime",
        "qos": 2
      }
    ],
    "subscribe_acl": [
      {
        "id": "cffdfabe-f8a4-4ecc-86f3-1d4761f32af9",
        "topic": "$SYS/broker/messages/publish/received",
        "qos": 0
      },
      {
        "id": "c40adb51-8bba-4806-95e1-4e9973bad177",
        "topic": "$SYS/broker/messages/stored",
        "qos": 1
      },
      {
        "id": "5254a4fb-5550-4399-baf3-5e60e6620cd3",
        "topic": "$SYS/broker/load/messages/sent/+",
        "qos": 1
      }
    ]
  },
  {
    "id": 35,
    "client_id": "707809685-1",
    "username": "jgeffcocky",
    "mount_point": null,
    "publish_acl": [
      {
        "id": "9e3a696b-95fe-46a7-b1e2-91887585e7c5",
        "topic": "$SYS/broker/load/bytes/received/+",
        "qos": 1
      }
    ],
    "subscribe_acl": [
      {
        "id": "014aece8-c8f2-4fb0-a362-ec8db66fbd85",
        "topic": "$SYS/broker/load/sockets/+",
        "qos": 2
      },
      {
        "id": "865eeea5-6234-4382-b734-786e9cdc6b25",
        "topic": "$SYS/broker/clients/connected",
        "qos": 1
      },
      {
        "id": "d816208f-b464-4460-aad3-1344fa15debb",
        "topic": "5ff4a2ce-e485-40f4-826c-b1a5d81be9b6/status",
        "qos": 1
      },
      {
        "id": "3c63418b-a38f-46a7-97c4-5993147e09ec",
        "topic": "$SYS/broker/clients/total",
        "qos": 1
      }
    ]
  },
  {
    "id": 36,
    "client_id": "224652749-X",
    "username": "rkehriz",
    "mount_point": "/amazon.co.jp",
    "publish_acl": [
      {
        "id": "3e2fab6f-3eb1-4b86-b4c5-348723563d3f",
        "topic": "$SYS/broker/bridge/#",
        "qos": 0
      },
      {
        "id": "270bea5a-8b3e-4391-8e47-7cc9621f0476",
        "topic": "$SYS/broker/version",
        "qos": 2
      },
      {
        "id": "eac3280c-78b7-42f4-a3c0-00c064f639bc",
        "topic": "$SYS/broker/clients/connected",
        "qos": 1
      },
      {
        "id": "962ad30b-b03d-4988-a6f7-cbbec07c418a",
        "topic": "$SYS/broker/load/messages/received/+",
        "qos": 2
      },
      {
        "id": "0f7ed7ce-08c2-42f2-a6de-e29f00c2074e",
        "topic": "$SYS/broker/messages/inflight",
        "qos": 1
      }
    ],
    "subscribe_acl": [
      {
        "id": "aa544668-ff57-4326-9fda-be44ed474b96",
        "topic": "$SYS/broker/load/messages/sent/+",
        "qos": 0
      },
      {
        "id": "445af85d-7301-4566-a5f3-25b47f04b7b3",
        "topic": "$SYS/broker/clients/disconnected",
        "qos": 2
      }
    ]
  },
  {
    "id": 37,
    "client_id": "378863246-1",
    "username": "wflanigan10",
    "mount_point": null,
    "publish_acl": [
      {
        "id": "d2a3c9fe-bf21-4af7-983b-43d2385089d9",
        "topic": "myhome/groundfloor/livingroom/temperature",
        "qos": 2
      },
      {
        "id": "94fc4293-bbb3-4c22-a09a-ff14b57ea633",
        "topic": "$SYS/broker/load/messages/sent/+",
        "qos": 1
      },
      {
        "id": "239afab5-2afc-4fd5-92e7-35f02404d261",
        "topic": "$SYS/broker/clients/disconnected",
        "qos": 2
      },
      {
        "id": "adba3a55-d93c-4f92-8249-dba4106fd18a",
        "topic": "5ff4a2ce-e485-40f4-826c-b1a5d81be9b6/status",
        "qos": 2
      },
      {
        "id": "a0295189-f4bf-433f-84c3-d03b73b67c5e",
        "topic": "$SYS/broker/messages/sent",
        "qos": 0
      }
    ],
    "subscribe_acl": [
      {
        "id": "a281958f-35f4-45e4-b5cd-50c0f6d5350f",
        "topic": "$SYS/clients/[client-id]/ip",
        "qos": 2
      },
      {
        "id": "8cb61aca-1e02-4960-8bc3-4cdde97a6a33",
        "topic": "$SYS/broker/version",
        "qos": 0
      },
      {
        "id": "b14669cd-f55a-459a-96a6-74a7b757dfa2",
        "topic": "$SYS/broker/clients/disconnected",
        "qos": 1
      }
    ]
  },
  {
    "id": 38,
    "client_id": "911883416-7",
    "username": "awhitchurch11",
    "mount_point": "/cnet.com",
    "publish_acl": [],
    "subscribe_acl": [
      {
        "id": "a7ed804d-f168-4479-a5ab-7ca7bdf9ce1a",
        "topic": "$SYS/clients/[client-id]/connectedtime",
        "qos": 0
      },
      {
        "id": "974891cf-e264-40fb-9d4e-ddef545f035b",
        "topic": "$SYS/broker/messages/sent",
        "qos": 0
      },
      {
        "id": "158d35a5-2ea9-4a91-b638-b4107c4a6ed3",
        "topic": "$SYS/broker/messages/sent",
        "qos": 1
      }
    ]
  },
  {
    "id": 39,
    "client_id": "700170594-2",
    "username": "gdurman12",
    "mount_point": "/bloomberg.com",
    "publish_acl": [
      {
        "id": "f8edd625-bce8-4677-b189-20654c1134c3",
        "topic": "USA/California/San Francisco/Silicon Valley",
        "qos": 1
      }
    ],
    "subscribe_acl": [
      {
        "id": "b2e16b0c-5d6c-42a1-9c87-75102a669e35",
        "topic": "$SYS/broker/load/bytes/sent/+",
        "qos": 2
      }
    ]
  },
  {
    "id": 40,
    "client_id": "147670357-4",
    "username": "cklimkin13",
    "mount_point": null,
    "publish_acl": [
      {
        "id": "c1206ebb-9330-45af-a10f-b10f94bba8b1",
        "topic": "$SYS/broker/clients/connected",
        "qos": 0
      },
      {
        "id": "506063f7-cb48-400d-915a-89fae2993125",
        "topic": "$SYS/broker/changeset",
        "qos": 0
      },
      {
        "id": "543548d0-0b93-46b1-8656-71a078eaf947",
        "topic": "$SYS/broker/load/publish/dropped/+",
        "qos": 0
      },
      {
        "id": "7d53322e-1043-40d9-a6e9-a5acb88579c4",
        "topic": "$SYS/broker/messages/publish/received",
        "qos": 0
      },
      {
        "id": "785c9b46-096e-42db-a12d-e9d0445b102b",
        "topic": "$SYS/broker/messages/sent",
        "qos": 2
      }
    ],
    "subscribe_acl": [
      {
        "id": "98eaa8ba-f3e4-476b-b66f-f785ac455069",
        "topic": "$SYS/broker/clients/total",
        "qos": 0
      },
      {
        "id": "89767b6b-b0f2-4dc3-b8d5-5712ef2ec737",
        "topic": "$SYS/broker/load/bytes/received",
        "qos": 0
      },
      {
        "id": "7f1bd128-4148-47bb-9d8b-fa7cfa49d29a",
        "topic": "$SYS/broker/messages/publish/dropped",
        "qos": 0
      }
    ]
  },
  {
    "id": 41,
    "client_id": "327065427-8",
    "username": "mwickens14",
    "mount_point": null,
    "publish_acl": [
      {
        "id": "64230668-c061-410c-a2f3-1aa89492f014",
        "topic": "$SYS/broker/changeset",
        "qos": 2
      },
      {
        "id": "025ff24a-d5b2-49e0-aa0a-a2f4a7fcea47",
        "topic": "$SYS/broker/clients/disconnected",
        "qos": 0
      },
      {
        "id": "8632bd40-d8a4-4415-9dde-efcfa28b5263",
        "topic": "$SYS/broker/uptime",
        "qos": 2
      },
      {
        "id": "50fa0a6c-6e76-4e64-a8e5-e409e27f35e3",
        "topic": "$SYS/broker/uptime",
        "qos": 1
      }
    ],
    "subscribe_acl": [
      {
        "id": "72bdcee5-8b2d-439c-bea7-9ef6ea12db78",
        "topic": "$SYS/broker/uptime",
        "qos": 2
      },
      {
        "id": "342c9573-6730-43dd-8374-91f2b1c8f1bb",
        "topic": "$SYS/broker/clients/total",
        "qos": 0
      },
      {
        "id": "d428e9e2-59d3-4f86-bac4-3b68fdc4225e",
        "topic": "$SYS/broker/load/bytes/received/+",
        "qos": 2
      },
      {
        "id": "2a16f4ae-0cc1-46e7-8193-68a0814bcbd4",
        "topic": "$SYS/broker/messages/publish/dropped",
        "qos": 0
      }
    ]
  },
  {
    "id": 42,
    "client_id": "705035650-6",
    "username": "fmaddyson15",
    "mount_point": "/rambler.ru",
    "publish_acl": [
      {
        "id": "98a4e0fb-ec9d-4caf-ae07-663237af802f",
        "topic": "myhome/groundfloor/livingroom/temperature",
        "qos": 1
      },
      {
        "id": "6f09299c-39d8-4ba1-a5b7-178f3a8ce4bc",
        "topic": "$SYS/broker/bridge/#",
        "qos": 2
      },
      {
        "id": "d7ded959-9a72-4b68-acd7-6646dcdf6ca9",
        "topic": "$SYS/broker/load/bytes/received",
        "qos": 1
      },
      {
        "id": "d02558bf-f32f-4a09-813c-e10b5b8c1ee3",
        "topic": "$SYS/broker/messages/received",
        "qos": 1
      }
    ],
    "subscribe_acl": [
      {
        "id": "41959dd8-78c9-47d6-ab97-3898fb9aa684",
        "topic": "$SYS/broker/messages/retained/count",
        "qos": 0
      },
      {
        "id": "d2ee232c-a713-4b30-8b71-25c018998dfc",
        "topic": "$SYS/broker/load/connections/+",
        "qos": 1
      },
      {
        "id": "24b30d29-4bba-47dd-9e06-958170953c4f",
        "topic": "Germany/Bavaria/car/2382340923453/latitude",
        "qos": 0
      },
      {
        "id": "690ce9cd-bad5-4e0b-819e-95a353842e0d",
        "topic": "$SYS/broker/changeset",
        "qos": 1
      },
      {
        "id": "fd3b923b-5f63-4a8c-8d75-55ec8d96cfa2",
        "topic": "$SYS/broker/messages/sent",
        "qos": 2
      }
    ]
  },
  {
    "id": 43,
    "client_id": "963537335-X",
    "username": "pbewlay16",
    "mount_point": "/wikispaces.com",
    "publish_acl": [
      {
        "id": "03319d9d-e069-4878-8397-0d9b96ad7f22",
        "topic": "$SYS/broker/version",
        "qos": 2
      },
      {
        "id": "a86f665d-b28a-4e18-888e-630b03b73f37",
        "topic": "$SYS/broker/clients/connected",
        "qos": 0
      }
    ],
    "subscribe_acl": [
      {
        "id": "df48602f-dd8d-49bd-a0dc-2185284910f6",
        "topic": "$SYS/broker/changeset",
        "qos": 1
      },
      {
        "id": "63fc6e15-a69b-45f3-aca3-c3dbf82b4d38",
        "topic": "$SYS/broker/clients/connected",
        "qos": 1
      }
    ]
  },
  {
    "id": 44,
    "client_id": "105508186-0",
    "username": "abreckin17",
    "mount_point": null,
    "publish_acl": [
      {
        "id": "95dd4af0-d442-4bfd-983c-7d3eb71db239",
        "topic": "$SYS/broker/messages/publish/sent",
        "qos": 1
      }
    ],
    "subscribe_acl": [
      {
        "id": "73f857e7-bebf-4e85-b4bb-ca7f31935d97",
        "topic": "$SYS/broker/messages/sent",
        "qos": 1
      }
    ]
  },
  {
    "id": 45,
    "client_id": "394173976-X",
    "username": "kpaish18",
    "mount_point": "/illinois.edu",
    "publish_acl": [],
    "subscribe_acl": [
      {
        "id": "2f21a4b0-60a7-471a-a6e7-1c14a76aeead",
        "topic": "USA/California/San Francisco/Silicon Valley",
        "qos": 0
      },
      {
        "id": "dcc91117-ed6f-4c41-abdf-83e83d5bb1f2",
        "topic": "$SYS/broker/clients/total",
        "qos": 2
      },
      {
        "id": "1113e98b-a0df-44c3-aa91-86e232826357",
        "topic": "$SYS/broker/load/bytes/received/+",
        "qos": 1
      },
      {
        "id": "d3d3bfb2-a919-4c27-98d0-6a5a9272a7df",
        "topic": "$SYS/broker/clients/total",
        "qos": 2
      }
    ]
  },
  {
    "id": 46,
    "client_id": "327106660-4",
    "username": "qtawn19",
    "mount_point": null,
    "publish_acl": [
      {
        "id": "e35ee27c-2f0e-4128-9e98-186f0b2737b7",
        "topic": "$SYS/broker/messages/sent",
        "qos": 2
      },
      {
        "id": "f98b03d5-4b1c-4e4f-a760-0be334bd206f",
        "topic": "$SYS/broker/messages/received",
        "qos": 2
      }
    ],
    "subscribe_acl": [
      {
        "id": "dcd74e5b-09f4-48ab-93a8-c436bb0bb549",
        "topic": "$SYS/broker/messages/inflight",
        "qos": 2
      },
      {
        "id": "aa0689fc-a16b-4aac-b9ab-b969b85fd262",
        "topic": "$SYS/broker/messages/sent",
        "qos": 2
      },
      {
        "id": "ce1c2061-d3cb-47f6-9692-60f2d979a917",
        "topic": "5ff4a2ce-e485-40f4-826c-b1a5d81be9b6/status",
        "qos": 1
      }
    ]
  },
  {
    "id": 47,
    "client_id": "992284593-8",
    "username": "kpettigree1a",
    "mount_point": "/mtv.com",
    "publish_acl": [
      {
        "id": "2ea833fa-06d0-44cc-b066-bbca1d035d09",
        "topic": "$SYS/broker/messages/sent",
        "qos": 0
      }
    ],
    "subscribe_acl": [
      {
        "id": "5cc01c7e-3b42-48a8-a1b5-ba06d3867859",
        "topic": "$SYS/broker/changeset",
        "qos": 1
      }
    ]
  },
  {
    "id": 48,
    "client_id": "936499303-9",
    "username": "mliddiard1b",
    "mount_point": null,
    "publish_acl": [
      {
        "id": "b40ad9ee-c749-48a0-99e7-f21bc9a88b20",
        "topic": "$SYS/broker/load/publish/sent/+",
        "qos": 2
      },
      {
        "id": "62c4f8fd-8d35-457d-99ee-7fae75ba6b06",
        "topic": "$SYS/broker/load/bytes/sent",
        "qos": 2
      },
      {
        "id": "1ea3edd6-c40d-45ed-9cde-48f8979a6c58",
        "topic": "$SYS/broker/version",
        "qos": 0
      },
      {
        "id": "90cb855c-154d-41ce-9f1a-addc6d4b3a4d",
        "topic": "$SYS/broker/clients/connected",
        "qos": 0
      },
      {
        "id": "b121400b-3bd6-485a-9e61-61607573e5d4",
        "topic": "$SYS/broker/timestamp",
        "qos": 1
      }
    ],
    "subscribe_acl": [
      {
        "id": "7fb35468-884f-4a51-b087-0bb0bae43cf1",
        "topic": "$SYS/broker/messages/received",
        "qos": 0
      },
      {
        "id": "827750a4-b531-4708-9abf-ea8db343bb31",
        "topic": "$SYS/broker/load/bytes/sent/+",
        "qos": 1
      },
      {
        "id": "e9016c11-4474-4f0b-9e00-2ebb8d93fe3b",
        "topic": "$SYS/broker/messages/publish/dropped",
        "qos": 1
      },
      {
        "id": "080af4dd-a9d6-4407-83a9-22352d7257a1",
        "topic": "$SYS/broker/version",
        "qos": 1
      }
    ]
  },
  {
    "id": 49,
    "client_id": "571804698-0",
    "username": "lscriviner1c",
    "mount_point": null,
    "publish_acl": [
      {
        "id": "2cbacbb5-787a-407a-aad5-096776a32dde",
        "topic": "$SYS/broker/clients/connected",
        "qos": 0
      },
      {
        "id": "19447b41-62df-4091-a26f-d23780e028e2",
        "topic": "$SYS/broker/clients/disconnected",
        "qos": 2
      },
      {
        "id": "66bcd433-85a6-4f0b-87d5-7beee8c7f7a7",
        "topic": "$SYS/broker/clients/disconnected",
        "qos": 0
      },
      {
        "id": "ec8645e9-b4a0-444d-b49c-69e1fcd19cf7",
        "topic": "$SYS/broker/clients/disconnected",
        "qos": 2
      }
    ],
    "subscribe_acl": [
      {
        "id": "6f459465-4b9b-41f3-bd3e-cd7de1c4172e",
        "topic": "$SYS/broker/load/messages/sent/+",
        "qos": 1
      },
      {
        "id": "5e50ac7e-e5c3-41ce-8f56-99dbb09e73b9",
        "topic": "$SYS/broker/load/sockets/+",
        "qos": 2
      },
      {
        "id": "cd924c2b-c0fa-4431-888c-40061a0173a9",
        "topic": "$SYS/broker/messages/stored",
        "qos": 0
      }
    ]
  },
  {
    "id": 50,
    "client_id": "142971912-5",
    "username": "nalbany1d",
    "mount_point": "/msu.edu",
    "publish_acl": [
      {
        "id": "85cd80bb-e402-45b9-9fa9-e02b4204930b",
        "topic": "$SYS/broker/messages/stored",
        "qos": 1
      },
      {
        "id": "0e79fd24-1977-43a2-91da-86cc330366f4",
        "topic": "$SYS/broker/clients/disconnected",
        "qos": 1
      }
    ],
    "subscribe_acl": [
      {
        "id": "9b4a74c3-d712-4403-9440-e677d52deccc",
        "topic": "$SYS/broker/load/bytes/received",
        "qos": 0
      },
      {
        "id": "a0cd1acc-eed8-4ae5-9a2a-94f9746a4ca8",
        "topic": "$SYS/broker/load/bytes/sent",
        "qos": 0
      },
      {
        "id": "0a6fefa9-2da4-40f9-8320-8198d4868fd9",
        "topic": "$SYS/broker/time",
        "qos": 2
      },
      {
        "id": "752dc2e4-407f-4fb3-a08d-894b2ccb4a60",
        "topic": "Germany/Bavaria/car/2382340923453/latitude",
        "qos": 2
      },
      {
        "id": "5ecda83d-c720-442a-8f87-115e750435c3",
        "topic": "$SYS/broker/clients/maximum",
        "qos": 1
      }
    ]
  },
  {
    "id": 51,
    "client_id": "455773413-8",
    "username": "avipan1e",
    "mount_point": "/arizona.edu",
    "publish_acl": [],
    "subscribe_acl": [
      {
        "id": "7e8bab3f-2b45-46c1-bd25-5850683ba4fd",
        "topic": "$SYS/broker/clients/disconnected",
        "qos": 0
      }
    ]
  },
  {
    "id": 52,
    "client_id": "362095791-6",
    "username": "lmckean1f",
    "mount_point": "/photobucket.com",
    "publish_acl": [],
    "subscribe_acl": [
      {
        "id": "b78a8682-8083-4c48-b683-462100f9b0f2",
        "topic": "$SYS/broker/load/connections/+",
        "qos": 2
      },
      {
        "id": "826ac50e-f94b-419e-bf8e-bd1c2f74d885",
        "topic": "$SYS/broker/load/messages/received/+",
        "qos": 1
      },
      {
        "id": "27c1b69a-3849-47fa-9101-967db761ef5c",
        "topic": "$SYS/broker/messages/publish/dropped",
        "qos": 2
      }
    ]
  },
  {
    "id": 53,
    "client_id": "407173007-2",
    "username": "amandifield1g",
    "mount_point": null,
    "publish_acl": [
      {
        "id": "641e0b5e-3262-4d90-80bd-56a9ff67e591",
        "topic": "$SYS/broker/messages/stored",
        "qos": 0
      },
      {
        "id": "a51af5e8-0215-4bb6-952f-ee9ff5970c06",
        "topic": "$SYS/broker/load/connections/+",
        "qos": 2
      },
      {
        "id": "c18e9724-7ff0-4013-b728-ac2cab7d4342",
        "topic": "$SYS/broker/load/sockets/+",
        "qos": 0
      },
      {
        "id": "2d6a6807-5f1d-4f8d-808d-0e93575ff54c",
        "topic": "Germany/Bavaria/car/2382340923453/latitude",
        "qos": 2
      },
      {
        "id": "4df8673c-b6f1-4280-9124-a181fd807a54",
        "topic": "myhome/groundfloor/livingroom/temperature",
        "qos": 1
      }
    ],
    "subscribe_acl": [
      {
        "id": "32125c70-881f-41ea-a3b5-cfcb53879e9d",
        "topic": "USA/California/San Francisco/Silicon Valley",
        "qos": 0
      },
      {
        "id": "a9c1ddcb-3342-4209-be0e-54cea2183265",
        "topic": "$SYS/broker/clients/total",
        "qos": 1
      }
    ]
  },
  {
    "id": 54,
    "client_id": "211728862-6",
    "username": "escarse1h",
    "mount_point": null,
    "publish_acl": [
      {
        "id": "1b6d5c25-8369-4b5d-b560-ce8930ceea9c",
        "topic": "$SYS/broker/messages/sent",
        "qos": 1
      },
      {
        "id": "f8c3ce03-426f-429b-9331-b4dc809ae995",
        "topic": "$SYS/broker/messages/sent",
        "qos": 2
      },
      {
        "id": "c70527d4-3089-4ee1-a7bb-5f523e1c134c",
        "topic": "$SYS/broker/clients/disconnected",
        "qos": 2
      }
    ],
    "subscribe_acl": [
      {
        "id": "4f8c64a6-0d93-451a-b400-e2d079f717a2",
        "topic": "$SYS/broker/clients/total",
        "qos": 2
      }
    ]
  },
  {
    "id": 55,
    "client_id": "604968185-6",
    "username": "bfiles1i",
    "mount_point": "/stumbleupon.com",
    "publish_acl": [],
    "subscribe_acl": [
      {
        "id": "d22faee2-d8e3-49d7-ae0a-2b4e0ba93c7a",
        "topic": "$SYS/broker/load/publish/dropped/+",
        "qos": 1
      },
      {
        "id": "445fa635-b656-4667-81ac-52168f51b7f2",
        "topic": "$SYS/broker/changeset",
        "qos": 0
      },
      {
        "id": "c9336f4f-b729-4823-af28-eae40714012e",
        "topic": "$SYS/broker/load/publish/sent/+",
        "qos": 0
      },
      {
        "id": "a1ddca46-585c-4624-b1fd-1cf1d69ce50e",
        "topic": "$SYS/broker/clients/maximum",
        "qos": 2
      },
      {
        "id": "a3e34066-c524-4296-b06a-41773023b3b1",
        "topic": "$SYS/broker/messages/sent",
        "qos": 2
      }
    ]
  },
  {
    "id": 56,
    "client_id": "535420693-6",
    "username": "mrawne1j",
    "mount_point": null,
    "publish_acl": [
      {
        "id": "6d3d9505-f172-44c7-97de-ae8072cff058",
        "topic": "$SYS/broker/messages/retained/count",
        "qos": 2
      },
      {
        "id": "3eec97dd-a923-47d0-a11b-cfbb6919ddec",
        "topic": "$SYS/broker/load/messages/sent/+",
        "qos": 2
      },
      {
        "id": "4c9fae01-a90f-41d3-a4a0-b108bc8b0e2a",
        "topic": "USA/California/San Francisco/Silicon Valley",
        "qos": 2
      },
      {
        "id": "a22aeb48-a401-4e20-9663-6fb3fd81fbc3",
        "topic": "$SYS/broker/uptime",
        "qos": 1
      }
    ],
    "subscribe_acl": [
      {
        "id": "b60de4cd-ff88-4f13-91bc-b9aaa8756c78",
        "topic": "$SYS/broker/messages/publish/sent",
        "qos": 1
      },
      {
        "id": "546814c9-6b28-44ef-a837-0cadc2a509df",
        "topic": "$SYS/broker/messages/retained/count",
        "qos": 2
      },
      {
        "id": "9228893e-4edb-4850-8fe9-bc4369612beb",
        "topic": "$SYS/broker/load/bytes/received",
        "qos": 2
      }
    ]
  },
  {
    "id": 57,
    "client_id": "448070996-7",
    "username": "snisco1k",
    "mount_point": null,
    "publish_acl": [
      {
        "id": "df49a729-455b-49f6-8003-2560eb3bd99a",
        "topic": "$SYS/broker/messages/stored",
        "qos": 2
      },
      {
        "id": "7c6f935f-2f74-4e67-a459-78e3e45af672",
        "topic": "$SYS/broker/load/messages/sent/+",
        "qos": 1
      }
    ],
    "subscribe_acl": [
      {
        "id": "b8a4b879-ec79-49dd-a1e7-688d4d5b3667",
        "topic": "$SYS/broker/messages/publish/dropped",
        "qos": 2
      },
      {
        "id": "f113c641-19a5-4c7d-bf91-5d207b1fd90d",
        "topic": "$SYS/broker/messages/sent",
        "qos": 2
      },
      {
        "id": "0b9052a2-8d98-41cf-a544-911daa600a00",
        "topic": "$SYS/broker/messages/received",
        "qos": 2
      }
    ]
  },
  {
    "id": 58,
    "client_id": "152745309-X",
    "username": "kdrogan1l",
    "mount_point": "/springer.com",
    "publish_acl": [
      {
        "id": "5847a70c-a7fe-4278-a24a-4f3e83fb9825",
        "topic": "$SYS/broker/messages/sent",
        "qos": 2
      },
      {
        "id": "e804890b-2790-44cb-8023-1c8aa9abac63",
        "topic": "$SYS/broker/messages/publish/sent",
        "qos": 0
      },
      {
        "id": "c669dc1d-d2b9-48f2-884b-7ed7db914014",
        "topic": "myhome/groundfloor/livingroom/temperature",
        "qos": 2
      }
    ],
    "subscribe_acl": [
      {
        "id": "d63c5cea-25a0-4623-a3cf-0f0fc234c367",
        "topic": "$SYS/broker/clients/disconnected",
        "qos": 0
      },
      {
        "id": "6f115f3a-ca72-49a4-ad2f-754a26af5c17",
        "topic": "$SYS/broker/uptime",
        "qos": 1
      },
      {
        "id": "e547cf48-cd1b-443e-b75d-ca77370ad6c0",
        "topic": "$SYS/broker/load/messages/sent/+",
        "qos": 2
      }
    ]
  },
  {
    "id": 59,
    "client_id": "570797042-8",
    "username": "ipfeiffer1m",
    "mount_point": "/vk.com",
    "publish_acl": [
      {
        "id": "2bcfa3c2-11be-48cd-b991-ad74a3ac457d",
        "topic": "5ff4a2ce-e485-40f4-826c-b1a5d81be9b6/status",
        "qos": 1
      },
      {
        "id": "3adcb464-c6ae-41a5-8a62-2b35b984a749",
        "topic": "$SYS/broker/messages/received",
        "qos": 0
      },
      {
        "id": "92f00b5a-04a8-455b-a554-7ba0e4d16c4b",
        "topic": "$SYS/broker/load/sockets/+",
        "qos": 0
      },
      {
        "id": "ff43bde0-a558-40ea-8287-8ce2aed8af25",
        "topic": "$SYS/broker/messages/publish/dropped",
        "qos": 1
      }
    ],
    "subscribe_acl": [
      {
        "id": "a831b5eb-8f49-4cda-80b8-1b1cb3a28a44",
        "topic": "$SYS/clients/[client-id]/ip",
        "qos": 1
      }
    ]
  },
  {
    "id": 60,
    "client_id": "968552717-2",
    "username": "dberriball1n",
    "mount_point": "/indiatimes.com",
    "publish_acl": [],
    "subscribe_acl": [
      {
        "id": "7b85f7d4-1c25-4399-a2e4-ceeb7f987f1b",
        "topic": "$SYS/clients/[client-id]/connectedtime",
        "qos": 2
      }
    ]
  },
  {
    "id": 61,
    "client_id": "894228955-X",
    "username": "ecrowden1o",
    "mount_point": "/123-reg.co.uk",
    "publish_acl": [
      {
        "id": "19ab16de-96a4-4313-a411-f501721f247b",
        "topic": "$SYS/broker/clients/disconnected",
        "qos": 1
      },
      {
        "id": "7b6efcf0-16d8-4907-9c1d-f1179ef57dad",
        "topic": "$SYS/broker/clients/total",
        "qos": 1
      },
      {
        "id": "26268db3-ad3d-43e2-a090-66e9879f5801",
        "topic": "$SYS/broker/load/publish/dropped/+",
        "qos": 2
      },
      {
        "id": "c7cb4327-ee76-4e78-827b-09607ba5b031",
        "topic": "$SYS/broker/messages/retained/count",
        "qos": 0
      }
    ],
    "subscribe_acl": [
      {
        "id": "c11a6bcd-e8fc-432b-939d-b4dc99ff19f6",
        "topic": "$SYS/broker/version",
        "qos": 2
      },
      {
        "id": "99cda66c-0221-41c2-ba00-4f8bb1071956",
        "topic": "$SYS/broker/load/publish/dropped/+",
        "qos": 0
      },
      {
        "id": "7f42ef15-d8f7-4b2b-a1d4-79098c981387",
        "topic": "$SYS/broker/load/publish/dropped/+",
        "qos": 0
      },
      {
        "id": "7da8af93-d8f2-4c10-a856-6ff9116ec650",
        "topic": "myhome/groundfloor/livingroom/temperature",
        "qos": 1
      },
      {
        "id": "db306f16-e4d5-4329-98ba-7ca71d9e89a2",
        "topic": "$SYS/broker/load/publish/sent/+",
        "qos": 1
      }
    ]
  },
  {
    "id": 62,
    "client_id": "497301829-5",
    "username": "brouse1p",
    "mount_point": null,
    "publish_acl": [
      {
        "id": "22af9247-d641-41a4-ade1-89e4bd6c3aa1",
        "topic": "$SYS/broker/load/bytes/received",
        "qos": 0
      },
      {
        "id": "0ca5942f-33b6-4bf2-abb7-6ea206a032d0",
        "topic": "$SYS/broker/load/messages/received/+",
        "qos": 1
      },
      {
        "id": "e232b6fa-51ff-4aa8-b155-acf7614d15d9",
        "topic": "$SYS/broker/changeset",
        "qos": 1
      },
      {
        "id": "6f4841ab-43d0-4bed-bbc5-6acbe0b1f545",
        "topic": "$SYS/broker/messages/inflight",
        "qos": 1
      }
    ],
    "subscribe_acl": [
      {
        "id": "8f99264e-1d71-42a2-914b-782865dd8ac1",
        "topic": "$SYS/broker/clients/total",
        "qos": 0
      }
    ]
  },
  {
    "id": 63,
    "client_id": "087124592-2",
    "username": "zmcglone1q",
    "mount_point": "/nba.com",
    "publish_acl": [],
    "subscribe_acl": [
      {
        "id": "cc8a1997-86e4-49a5-a601-b3ece6076c95",
        "topic": "$SYS/broker/load/publish/sent/+",
        "qos": 0
      },
      {
        "id": "e7fcb065-9a0f-4655-9725-831ab042e3a3",
        "topic": "$SYS/broker/uptime",
        "qos": 2
      },
      {
        "id": "2977e8f7-a42b-4288-8f48-6a71e36abc2f",
        "topic": "$SYS/broker/messages/stored",
        "qos": 0
      },
      {
        "id": "512f2e7e-17f2-4772-9acb-c69b9927ce2c",
        "topic": "$SYS/broker/messages/sent",
        "qos": 2
      },
      {
        "id": "03052215-2083-44c1-8fa4-e83fa6768263",
        "topic": "$SYS/broker/subscriptions/count",
        "qos": 0
      }
    ]
  },
  {
    "id": 64,
    "client_id": "289363473-7",
    "username": "wgault1r",
    "mount_point": null,
    "publish_acl": [
      {
        "id": "0a91037e-6ec1-40a0-96da-a9597b064fa7",
        "topic": "$SYS/broker/load/publish/received/+",
        "qos": 0
      },
      {
        "id": "bcba25d9-30cd-4286-9b59-c0f47be1825a",
        "topic": "$SYS/broker/messages/sent",
        "qos": 1
      },
      {
        "id": "d5b44fd4-27da-4be0-b005-71d875ab0257",
        "topic": "$SYS/broker/clients/connected",
        "qos": 2
      },
      {
        "id": "75579050-96e8-459f-8411-015ed0c1e921",
        "topic": "Germany/Bavaria/car/2382340923453/latitude",
        "qos": 0
      },
      {
        "id": "7ad86b29-d0a8-40cc-b9f6-05c674d95f5b",
        "topic": "myhome/groundfloor/livingroom/temperature",
        "qos": 0
      }
    ],
    "subscribe_acl": [
      {
        "id": "c8c50dc2-3002-4281-9013-a9c4eb2a0102",
        "topic": "$SYS/broker/messages/publish/sent",
        "qos": 0
      }
    ]
  },
  {
    "id": 65,
    "client_id": "035215168-4",
    "username": "stebald1s",
    "mount_point": "/jiathis.com",
    "publish_acl": [],
    "subscribe_acl": [
      {
        "id": "fb7a7b76-74d7-4a40-a443-6abe3bdb22fd",
        "topic": "$SYS/broker/uptime",
        "qos": 1
      },
      {
        "id": "c0f1c77b-53f4-4a32-b218-f00ed6a6a4aa",
        "topic": "$SYS/broker/timestamp",
        "qos": 1
      }
    ]
  },
  {
    "id": 66,
    "client_id": "994600277-9",
    "username": "rbaldacchi1t",
    "mount_point": null,
    "publish_acl": [],
    "subscribe_acl": [
      {
        "id": "80d64ce4-5417-41d0-aeeb-b9153405ef98",
        "topic": "$SYS/broker/load/sockets/+",
        "qos": 1
      }
    ]
  },
  {
    "id": 67,
    "client_id": "690618668-X",
    "username": "pduchesne1u",
    "mount_point": "/amazonaws.com",
    "publish_acl": [],
    "subscribe_acl": [
      {
        "id": "64bc46c2-2366-40a7-847d-424a5585595c",
        "topic": "Germany/Bavaria/car/2382340923453/latitude",
        "qos": 0
      },
      {
        "id": "4705e680-b62c-45f0-b078-98e560df65ba",
        "topic": "$SYS/broker/uptime",
        "qos": 0
      },
      {
        "id": "99b8632f-311f-4047-b914-9150b425e86d",
        "topic": "$SYS/broker/bridge/#",
        "qos": 2
      },
      {
        "id": "d0acfdea-aef2-4c8b-9ba1-d3cab5507aed",
        "topic": "USA/California/San Francisco/Silicon Valley",
        "qos": 1
      },
      {
        "id": "42c9319e-f5db-42aa-94bd-7b182a8a0bd3",
        "topic": "myhome/groundfloor/livingroom/temperature",
        "qos": 1
      }
    ]
  },
  {
    "id": 68,
    "client_id": "749209199-0",
    "username": "tjoliffe1v",
    "mount_point": "/wisc.edu",
    "publish_acl": [
      {
        "id": "b16533d5-3bf9-4137-be92-a3850c398730",
        "topic": "$SYS/broker/load/bytes/received",
        "qos": 0
      },
      {
        "id": "9c1115ba-83fa-4c39-b23b-751576d303fd",
        "topic": "$SYS/broker/timestamp",
        "qos": 1
      },
      {
        "id": "d1eda845-caaa-4325-97f9-2c453b84014d",
        "topic": "$SYS/broker/load/bytes/sent",
        "qos": 0
      },
      {
        "id": "28992585-943a-4a91-95bb-31d02b6f6285",
        "topic": "$SYS/broker/load/publish/sent/+",
        "qos": 2
      },
      {
        "id": "4964490e-f313-4ee8-9851-5434679655e2",
        "topic": "$SYS/broker/uptime",
        "qos": 1
      }
    ],
    "subscribe_acl": [
      {
        "id": "fce41754-2229-4fe6-95b2-c837ee3024f0",
        "topic": "$SYS/broker/load/bytes/sent",
        "qos": 1
      },
      {
        "id": "85902350-177d-4305-b16f-4fcef63302d1",
        "topic": "$SYS/broker/messages/sent",
        "qos": 2
      },
      {
        "id": "da20e322-2e7d-4d14-9185-09fa661c3801",
        "topic": "$SYS/broker/load/publish/dropped/+",
        "qos": 2
      },
      {
        "id": "df018a33-5a10-40e6-8cad-b2d1a0efe597",
        "topic": "$SYS/broker/messages/sent",
        "qos": 1
      },
      {
        "id": "73de4334-011b-4e03-8061-648ae3daf861",
        "topic": "$SYS/broker/load/publish/dropped/+",
        "qos": 2
      }
    ]
  },
  {
    "id": 69,
    "client_id": "195011832-0",
    "username": "rklaassens1w",
    "mount_point": null,
    "publish_acl": [
      {
        "id": "637ffc13-70d1-4a2c-ae97-30f1570054c3",
        "topic": "$SYS/broker/clients/maximum",
        "qos": 1
      },
      {
        "id": "35feabe0-7197-46ea-b78f-3acddd6e7659",
        "topic": "$SYS/broker/load/messages/received/+",
        "qos": 1
      }
    ],
    "subscribe_acl": [
      {
        "id": "26d9b438-603d-4bd8-a7e1-98463128d92c",
        "topic": "$SYS/broker/load/messages/sent/+",
        "qos": 2
      },
      {
        "id": "1394bf83-56d2-48ce-9523-07234222f059",
        "topic": "$SYS/broker/clients/total",
        "qos": 1
      }
    ]
  },
  {
    "id": 70,
    "client_id": "621162485-9",
    "username": "cdownse1x",
    "mount_point": null,
    "publish_acl": [
      {
        "id": "783e8551-fbbc-4586-9166-2d727cbba737",
        "topic": "$SYS/broker/clients/connected",
        "qos": 2
      },
      {
        "id": "52b28f4b-96be-46b5-af1b-7f326371a258",
        "topic": "$SYS/broker/uptime",
        "qos": 2
      }
    ],
    "subscribe_acl": [
      {
        "id": "0da6565a-de6b-42ab-a347-9aa1232959ed",
        "topic": "$SYS/broker/load/bytes/sent/+",
        "qos": 2
      },
      {
        "id": "90f630d4-d6a3-4469-9f7c-bbefa15e7123",
        "topic": "$SYS/broker/clients/disconnected",
        "qos": 2
      },
      {
        "id": "aed3d19e-1599-470c-87f7-671ec27cf3b8",
        "topic": "$SYS/broker/load/publish/dropped/+",
        "qos": 1
      }
    ]
  },
  {
    "id": 71,
    "client_id": "397485514-9",
    "username": "zwarre1y",
    "mount_point": null,
    "publish_acl": [
      {
        "id": "9e5b663f-2859-443e-8692-362b30e3f07a",
        "topic": "$SYS/broker/load/bytes/received/+",
        "qos": 0
      },
      {
        "id": "be7135ad-7b75-4747-99c3-197d4bfe62ce",
        "topic": "$SYS/broker/messages/sent",
        "qos": 1
      },
      {
        "id": "4e2c819b-da91-410c-be99-8aeab210b4e9",
        "topic": "$SYS/broker/clients/total",
        "qos": 0
      },
      {
        "id": "db2e371f-b302-4dd7-8413-1e60706308a4",
        "topic": "$SYS/broker/messages/publish/dropped",
        "qos": 2
      },
      {
        "id": "dbd12401-5476-4733-824f-cc33f6ee6f53",
        "topic": "$SYS/broker/bridge/#",
        "qos": 0
      }
    ],
    "subscribe_acl": [
      {
        "id": "013ef80e-59ad-4585-b486-5bddd78eecf8",
        "topic": "$SYS/broker/clients/maximum",
        "qos": 0
      },
      {
        "id": "e28a34d8-fd5b-4932-bafa-0a32b4d23f6f",
        "topic": "USA/California/San Francisco/Silicon Valley",
        "qos": 0
      }
    ]
  },
  {
    "id": 72,
    "client_id": "597925230-4",
    "username": "fmccraine1z",
    "mount_point": "/cam.ac.uk",
    "publish_acl": [
      {
        "id": "b4096855-654c-4403-99f2-2c0d79279254",
        "topic": "$SYS/broker/load/publish/sent/+",
        "qos": 2
      },
      {
        "id": "b7e1baf2-9647-4e2d-a60b-e1007a6f8061",
        "topic": "$SYS/broker/clients/disconnected",
        "qos": 1
      },
      {
        "id": "2b6cce9f-4e99-4417-b712-6487ba245849",
        "topic": "$SYS/broker/clients/total",
        "qos": 2
      },
      {
        "id": "0af7075e-d825-4692-bec7-df94aa1aea64",
        "topic": "$SYS/broker/load/sockets/+",
        "qos": 0
      }
    ],
    "subscribe_acl": []
  },
  {
    "id": 73,
    "client_id": "664998648-8",
    "username": "ohacon20",
    "mount_point": "/netscape.com",
    "publish_acl": [],
    "subscribe_acl": [
      {
        "id": "467525ea-08d6-406e-861c-5a2d98009c57",
        "topic": "$SYS/broker/messages/inflight",
        "qos": 1
      },
      {
        "id": "578834f9-215a-4222-ac38-b8a419485199",
        "topic": "$SYS/broker/load/connections/+",
        "qos": 2
      },
      {
        "id": "d2df40ab-13de-4998-a658-3bdadc8c3905",
        "topic": "$SYS/broker/messages/received",
        "qos": 0
      },
      {
        "id": "74de5cdb-ee52-4df6-8055-99f16146645f",
        "topic": "$SYS/broker/clients/disconnected",
        "qos": 2
      }
    ]
  },
  {
    "id": 74,
    "client_id": "998872808-5",
    "username": "gdegnen21",
    "mount_point": null,
    "publish_acl": [
      {
        "id": "65ceefa9-e4c1-4e8c-bb94-be8e1e8bee5d",
        "topic": "$SYS/clients/[client-id]/ip",
        "qos": 2
      },
      {
        "id": "a95dbbfc-e55a-45c1-ad1f-66f437e01295",
        "topic": "$SYS/broker/load/publish/dropped/+",
        "qos": 1
      },
      {
        "id": "9dae0cfa-b31a-46dd-b51c-0626dc7085a9",
        "topic": "$SYS/broker/load/publish/received/+",
        "qos": 1
      },
      {
        "id": "258895bd-ca2b-4dac-b4c1-a9c40a2593dc",
        "topic": "$SYS/broker/clients/total",
        "qos": 0
      },
      {
        "id": "6655c248-429b-43f1-87b0-42ae58145acb",
        "topic": "$SYS/broker/clients/disconnected",
        "qos": 0
      }
    ],
    "subscribe_acl": [
      {
        "id": "efa217a3-4446-4bf5-9d7d-dd08f118bd74",
        "topic": "$SYS/broker/load/bytes/sent/+",
        "qos": 2
      },
      {
        "id": "00c58e4c-48ff-4df1-a883-8b22dedff3b8",
        "topic": "$SYS/broker/clients/total",
        "qos": 1
      },
      {
        "id": "f9394da9-8cc0-4a0b-8ce1-f3201fc9515f",
        "topic": "5ff4a2ce-e485-40f4-826c-b1a5d81be9b6/status",
        "qos": 1
      }
    ]
  },
  {
    "id": 75,
    "client_id": "668076058-5",
    "username": "lscalera22",
    "mount_point": "/auda.org.au",
    "publish_acl": [
      {
        "id": "00ebf98b-7a92-4e1d-b897-7a38b44a39e0",
        "topic": "$SYS/broker/load/bytes/sent/+",
        "qos": 2
      }
    ],
    "subscribe_acl": [
      {
        "id": "ed20f97a-0708-49fe-8fbf-65553611fba7",
        "topic": "$SYS/broker/clients/disconnected",
        "qos": 1
      },
      {
        "id": "fb94394e-d1c9-4f27-b63d-367c9dba1c44",
        "topic": "$SYS/broker/load/publish/sent/+",
        "qos": 1
      },
      {
        "id": "33670453-866b-4013-9e09-d6d2e620beb0",
        "topic": "$SYS/broker/changeset",
        "qos": 1
      },
      {
        "id": "d5111ec7-87bd-4823-bfeb-206c8d02380c",
        "topic": "$SYS/broker/load/connections/+",
        "qos": 0
      }
    ]
  },
  {
    "id": 76,
    "client_id": "592188787-0",
    "username": "xboorman23",
    "mount_point": null,
    "publish_acl": [
      {
        "id": "7d5b53a4-b428-460f-bedb-82419a64547e",
        "topic": "$SYS/broker/load/bytes/received",
        "qos": 2
      },
      {
        "id": "08edafbc-d482-4892-baf4-e72a30c82cce",
        "topic": "$SYS/broker/uptime",
        "qos": 2
      },
      {
        "id": "d2be0b40-6bd3-4c03-9c2e-b68a9ec770f5",
        "topic": "$SYS/broker/messages/sent",
        "qos": 0
      },
      {
        "id": "e19d28e6-e67a-43f2-b36b-16592fd457f1",
        "topic": "USA/California/San Francisco/Silicon Valley",
        "qos": 1
      },
      {
        "id": "9336c29c-85ae-4e35-92fc-b6a1291134c2",
        "topic": "$SYS/clients/[client-id]/connectedtime",
        "qos": 0
      }
    ],
    "subscribe_acl": [
      {
        "id": "165be7d4-0afd-459f-a18e-1c4e41e9985b",
        "topic": "$SYS/broker/uptime",
        "qos": 2
      },
      {
        "id": "542e89c1-033a-42b5-a800-511e5314bf60",
        "topic": "$SYS/broker/messages/publish/dropped",
        "qos": 2
      },
      {
        "id": "f9d7a2fb-2835-4689-a632-dff2f906a188",
        "topic": "$SYS/broker/messages/inflight",
        "qos": 2
      },
      {
        "id": "b69c73fa-c407-4ea4-9bd1-e3c04fb630fa",
        "topic": "$SYS/broker/messages/retained/count",
        "qos": 0
      }
    ]
  },
  {
    "id": 77,
    "client_id": "911628499-2",
    "username": "abelhomme24",
    "mount_point": "/icq.com",
    "publish_acl": [],
    "subscribe_acl": []
  },
  {
    "id": 78,
    "client_id": "604135405-8",
    "username": "ltoquet25",
    "mount_point": null,
    "publish_acl": [
      {
        "id": "3d540cdb-eb33-46c7-b171-fd1c8d7dbc09",
        "topic": "$SYS/clients/[client-id]/connectedtime",
        "qos": 1
      },
      {
        "id": "8914fb99-2770-438b-938e-b81351c28886",
        "topic": "USA/California/San Francisco/Silicon Valley",
        "qos": 0
      },
      {
        "id": "27143f72-f817-4644-8b5a-4ddc95a6d0ef",
        "topic": "$SYS/broker/uptime",
        "qos": 1
      },
      {
        "id": "65ed1d77-08b1-4a02-8aa1-dfe949724f23",
        "topic": "$SYS/broker/clients/connected",
        "qos": 1
      },
      {
        "id": "6fa3a29f-f58a-4f66-966d-72d59d85b512",
        "topic": "5ff4a2ce-e485-40f4-826c-b1a5d81be9b6/status",
        "qos": 2
      }
    ],
    "subscribe_acl": [
      {
        "id": "52de2523-09da-48f4-b622-9077d1aa2291",
        "topic": "$SYS/broker/time",
        "qos": 1
      },
      {
        "id": "2c813a4e-8a5a-4fde-94c4-20b1b5680add",
        "topic": "$SYS/broker/load/bytes/received/+",
        "qos": 2
      },
      {
        "id": "c33bd901-06fe-4a1d-ae6e-76c16e382ae8",
        "topic": "$SYS/broker/load/connections/+",
        "qos": 2
      }
    ]
  },
  {
    "id": 79,
    "client_id": "368164159-5",
    "username": "ehoyt26",
    "mount_point": "/nationalgeographic.com",
    "publish_acl": [
      {
        "id": "3bd40b4c-3ff6-445d-bb80-096a4956b6f5",
        "topic": "$SYS/broker/uptime",
        "qos": 0
      },
      {
        "id": "b1fba0b6-d31b-46e7-9b96-a2b270c6be1b",
        "topic": "$SYS/broker/messages/inflight",
        "qos": 2
      },
      {
        "id": "b35ca8f1-d216-4dd2-b0fa-0c446fb19c73",
        "topic": "$SYS/broker/messages/retained/count",
        "qos": 1
      },
      {
        "id": "7138dcfa-2147-4301-9136-c8c944b3e11c",
        "topic": "$SYS/broker/load/bytes/received/+",
        "qos": 2
      },
      {
        "id": "bbec31ba-c9e0-4723-9d98-6287f92e23a3",
        "topic": "$SYS/broker/messages/received",
        "qos": 2
      }
    ],
    "subscribe_acl": []
  },
  {
    "id": 80,
    "client_id": "754222964-8",
    "username": "ahunstone27",
    "mount_point": "/twitter.com",
    "publish_acl": [
      {
        "id": "82e0f5e3-a492-4deb-acee-85e8dc14b438",
        "topic": "$SYS/broker/load/messages/received/+",
        "qos": 0
      },
      {
        "id": "21b2ac28-f8e3-4095-ae2d-24bf5ea1f5dc",
        "topic": "5ff4a2ce-e485-40f4-826c-b1a5d81be9b6/status",
        "qos": 1
      },
      {
        "id": "ba8d5ee9-90aa-49da-8dbe-f7f72d220486",
        "topic": "$SYS/clients/[client-id]/connectedtime",
        "qos": 1
      }
    ],
    "subscribe_acl": [
      {
        "id": "83f78890-2c22-403e-9930-b34bd5c46485",
        "topic": "$SYS/broker/messages/received",
        "qos": 0
      },
      {
        "id": "5a64b9e9-65f4-40a0-ae1f-61ad5c0187e8",
        "topic": "$SYS/broker/version",
        "qos": 1
      }
    ]
  },
  {
    "id": 81,
    "client_id": "030970308-5",
    "username": "lspiteri28",
    "mount_point": "/yahoo.com",
    "publish_acl": [],
    "subscribe_acl": []
  },
  {
    "id": 82,
    "client_id": "925758654-5",
    "username": "koutlaw29",
    "mount_point": null,
    "publish_acl": [],
    "subscribe_acl": [
      {
        "id": "f78d98a7-f3b1-45d1-86f6-caa1e3b78c1f",
        "topic": "$SYS/broker/changeset",
        "qos": 2
      }
    ]
  },
  {
    "id": 83,
    "client_id": "365620682-1",
    "username": "utavinor2a",
    "mount_point": null,
    "publish_acl": [
      {
        "id": "4155148f-f9af-4d7f-ae31-259c03509582",
        "topic": "$SYS/broker/clients/connected",
        "qos": 0
      },
      {
        "id": "0b3f8bf4-253b-4413-9765-2802a969699b",
        "topic": "$SYS/broker/uptime",
        "qos": 0
      },
      {
        "id": "4d85b26b-9e8c-43c8-adce-44a453c41bc0",
        "topic": "$SYS/broker/clients/disconnected",
        "qos": 1
      },
      {
        "id": "4623b1b9-7449-4af6-8d9a-58cde4501d58",
        "topic": "$SYS/broker/changeset",
        "qos": 1
      },
      {
        "id": "06c3cf08-c3fc-44db-8303-882d974804ab",
        "topic": "$SYS/broker/clients/maximum",
        "qos": 2
      }
    ],
    "subscribe_acl": [
      {
        "id": "c2322e03-72b6-42f8-901a-e199326d1586",
        "topic": "$SYS/broker/clients/maximum",
        "qos": 1
      },
      {
        "id": "756a8ea0-9a25-4364-bc30-ae326f1fa2ed",
        "topic": "$SYS/broker/messages/inflight",
        "qos": 2
      },
      {
        "id": "742d9bf3-ba2b-4eec-aff4-58f04ef787cb",
        "topic": "$SYS/broker/clients/connected",
        "qos": 1
      }
    ]
  },
  {
    "id": 84,
    "client_id": "622907467-2",
    "username": "rhempshall2b",
    "mount_point": "/ftc.gov",
    "publish_acl": [
      {
        "id": "4dd4291b-2a23-4996-850d-0dd4d97200c8",
        "topic": "Germany/Bavaria/car/2382340923453/latitude",
        "qos": 1
      },
      {
        "id": "7b32caa9-97c6-4f89-9d8b-cd4454946f79",
        "topic": "$SYS/broker/messages/stored",
        "qos": 2
      },
      {
        "id": "43ce6c75-ccae-492a-b15c-14ecd93bc5f7",
        "topic": "5ff4a2ce-e485-40f4-826c-b1a5d81be9b6/status",
        "qos": 2
      },
      {
        "id": "9b865d4a-9669-49dd-bc42-624e3bbeb5dc",
        "topic": "$SYS/broker/load/publish/received/+",
        "qos": 2
      }
    ],
    "subscribe_acl": [
      {
        "id": "673b64c7-4302-4162-8748-bfddffe6ceeb",
        "topic": "$SYS/broker/messages/received",
        "qos": 2
      },
      {
        "id": "107b4eb8-0280-4f4f-8a24-c0b09859712a",
        "topic": "$SYS/broker/version",
        "qos": 0
      },
      {
        "id": "5a4b359e-76af-4487-8175-3c81ad53e5a3",
        "topic": "$SYS/broker/clients/total",
        "qos": 0
      },
      {
        "id": "b9991d88-2f88-4012-8eb4-29ad98c9debe",
        "topic": "$SYS/broker/load/bytes/received/+",
        "qos": 0
      }
    ]
  },
  {
    "id": 85,
    "client_id": "571782378-9",
    "username": "dceillier2c",
    "mount_point": "/shinystat.com",
    "publish_acl": [
      {
        "id": "2679ad31-814c-4d6d-bdb6-792bdb02a429",
        "topic": "myhome/groundfloor/livingroom/temperature",
        "qos": 1
      },
      {
        "id": "d060bc51-e8a9-40a9-b462-8d4320c7052a",
        "topic": "myhome/groundfloor/livingroom/temperature",
        "qos": 1
      },
      {
        "id": "0b7f38af-f506-4818-b47c-5e6c6195e7c8",
        "topic": "$SYS/broker/clients/maximum",
        "qos": 2
      },
      {
        "id": "18916218-cfbe-4855-ad14-29a0c8b8c4d5",
        "topic": "myhome/groundfloor/livingroom/temperature",
        "qos": 2
      },
      {
        "id": "7c6a4310-8962-4b8f-9e73-045016d74d49",
        "topic": "$SYS/broker/bridge/#",
        "qos": 0
      }
    ],
    "subscribe_acl": [
      {
        "id": "c50b9571-785a-46c7-93b2-e4f6f44a59fc",
        "topic": "5ff4a2ce-e485-40f4-826c-b1a5d81be9b6/status",
        "qos": 0
      },
      {
        "id": "1d2475f3-d361-4474-aa05-08cefa666e9a",
        "topic": "$SYS/broker/version",
        "qos": 0
      },
      {
        "id": "9c028c92-57fa-4c36-b8d4-5095d13f03d7",
        "topic": "$SYS/clients/[client-id]/ip",
        "qos": 1
      },
      {
        "id": "72ec4c7b-d88c-47c4-8c63-0a71f250bd95",
        "topic": "$SYS/broker/changeset",
        "qos": 2
      },
      {
        "id": "e765452c-792c-4b14-bc31-456586b185d3",
        "topic": "$SYS/broker/clients/maximum",
        "qos": 2
      }
    ]
  },
  {
    "id": 86,
    "client_id": "479049644-9",
    "username": "msaller2d",
    "mount_point": "/msu.edu",
    "publish_acl": [],
    "subscribe_acl": []
  },
  {
    "id": 87,
    "client_id": "409463062-7",
    "username": "ldurling2e",
    "mount_point": null,
    "publish_acl": [
      {
        "id": "75e8db3b-2686-4204-8574-f795d13f2118",
        "topic": "$SYS/broker/messages/sent",
        "qos": 1
      },
      {
        "id": "fea539a4-a610-4e25-8e15-722b2cf5d5a5",
        "topic": "$SYS/broker/load/publish/sent/+",
        "qos": 0
      },
      {
        "id": "6853a998-b865-40dd-8bd2-dd5cd5d41693",
        "topic": "myhome/groundfloor/livingroom/temperature",
        "qos": 1
      }
    ],
    "subscribe_acl": [
      {
        "id": "f4e4c197-39f2-4bb5-9777-d9b8ad87a214",
        "topic": "$SYS/broker/clients/disconnected",
        "qos": 0
      },
      {
        "id": "7b406267-30f6-4cff-8084-3f7e14ab4e36",
        "topic": "$SYS/broker/changeset",
        "qos": 1
      },
      {
        "id": "7ab3f659-a974-4d9b-916a-3e83b72ac20b",
        "topic": "$SYS/broker/bridge/#",
        "qos": 2
      },
      {
        "id": "4da3ade0-78a6-4fcc-8f5e-4bfa276c3037",
        "topic": "$SYS/broker/messages/sent",
        "qos": 1
      },
      {
        "id": "281a2a47-6273-4916-b21f-ce60f7fae731",
        "topic": "$SYS/broker/messages/sent",
        "qos": 2
      }
    ]
  },
  {
    "id": 88,
    "client_id": "859859241-2",
    "username": "jdenisyuk2f",
    "mount_point": null,
    "publish_acl": [
      {
        "id": "87fbea3b-2dc3-4e11-95aa-de8ff605cee1",
        "topic": "Germany/Bavaria/car/2382340923453/latitude",
        "qos": 2
      },
      {
        "id": "4a9d64d2-0c51-43af-8ae8-4258060dfc61",
        "topic": "$SYS/broker/uptime",
        "qos": 1
      },
      {
        "id": "482f6784-458a-4675-b26f-2c839e93b78a",
        "topic": "$SYS/broker/bridge/#",
        "qos": 1
      },
      {
        "id": "4518bf6e-c427-4f15-8ef0-a9d74a446842",
        "topic": "$SYS/broker/load/bytes/sent/+",
        "qos": 0
      },
      {
        "id": "cdec8553-2a36-4df9-bb6d-35b38d7a539c",
        "topic": "$SYS/broker/messages/publish/received",
        "qos": 1
      }
    ],
    "subscribe_acl": [
      {
        "id": "8c088545-c42f-4a2c-85c0-2ce428b499c9",
        "topic": "$SYS/broker/messages/inflight",
        "qos": 0
      },
      {
        "id": "4b56d82d-04fd-4403-bb70-a845dbb7253e",
        "topic": "$SYS/broker/messages/sent",
        "qos": 0
      },
      {
        "id": "b2dad507-b5bf-40cd-a282-7f87edaa5e56",
        "topic": "$SYS/broker/load/publish/received/+",
        "qos": 0
      }
    ]
  },
  {
    "id": 89,
    "client_id": "606458990-6",
    "username": "lvoak2g",
    "mount_point": "/shutterfly.com",
    "publish_acl": [
      {
        "id": "7a036c50-e382-44f3-bd02-eed53923832b",
        "topic": "$SYS/broker/messages/sent",
        "qos": 0
      }
    ],
    "subscribe_acl": [
      {
        "id": "59aaf8c9-6279-47c5-8dee-c8cf6a9f132c",
        "topic": "$SYS/broker/time",
        "qos": 0
      },
      {
        "id": "0fca1efb-ce10-4fb6-80a7-4a40919148bb",
        "topic": "$SYS/broker/load/publish/dropped/+",
        "qos": 0
      }
    ]
  },
  {
    "id": 90,
    "client_id": "547892224-2",
    "username": "cdressel2h",
    "mount_point": "/about.me",
    "publish_acl": [
      {
        "id": "07e25aac-fead-47c8-9dd5-ca9017a5393a",
        "topic": "$SYS/broker/timestamp",
        "qos": 1
      },
      {
        "id": "40187977-0927-4e04-9da8-2b1afa4ab326",
        "topic": "$SYS/broker/uptime",
        "qos": 2
      },
      {
        "id": "58d447a1-0b0d-49ee-b56c-a633d74bbdc3",
        "topic": "$SYS/broker/load/publish/sent/+",
        "qos": 1
      }
    ],
    "subscribe_acl": [
      {
        "id": "d34b3236-f53b-47fc-ad6d-d9732e1ce05c",
        "topic": "$SYS/broker/messages/retained/count",
        "qos": 2
      }
    ]
  },
  {
    "id": 91,
    "client_id": "877153348-6",
    "username": "hmidghall2i",
    "mount_point": "/psu.edu",
    "publish_acl": [
      {
        "id": "ff0e4af3-0b62-4ec9-80ff-c7f1c6049f37",
        "topic": "$SYS/broker/uptime",
        "qos": 2
      },
      {
        "id": "e0e92d8b-979f-4efc-840a-f3631ec8c38b",
        "topic": "myhome/groundfloor/livingroom/temperature",
        "qos": 0
      },
      {
        "id": "f10797eb-32fb-4127-b61c-bff07467a40c",
        "topic": "$SYS/broker/load/connections/+",
        "qos": 2
      }
    ],
    "subscribe_acl": [
      {
        "id": "a4ce3cbf-786f-4d7c-aacc-d393fd597731",
        "topic": "$SYS/broker/messages/received",
        "qos": 0
      },
      {
        "id": "b1ead39b-0adc-415d-ab73-b2e0873e6caf",
        "topic": "Germany/Bavaria/car/2382340923453/latitude",
        "qos": 0
      },
      {
        "id": "bfb84fd8-756e-46e8-8c48-26c79f596873",
        "topic": "$SYS/broker/messages/stored",
        "qos": 2
      },
      {
        "id": "72b28256-a275-49ff-b7f8-369b53631dd9",
        "topic": "$SYS/broker/clients/connected",
        "qos": 0
      },
      {
        "id": "e1f6334e-dd77-4d60-91cf-b086b7f3f33f",
        "topic": "$SYS/broker/clients/connected",
        "qos": 1
      }
    ]
  },
  {
    "id": 92,
    "client_id": "827019329-1",
    "username": "tmcgarrell2j",
    "mount_point": null,
    "publish_acl": [
      {
        "id": "34fe3dd7-05a2-4b5f-99e7-eff0d4ea74b3",
        "topic": "$SYS/broker/load/publish/sent/+",
        "qos": 2
      }
    ],
    "subscribe_acl": [
      {
        "id": "b715ef86-e5e9-40c0-a663-86714f82d325",
        "topic": "$SYS/broker/clients/total",
        "qos": 1
      }
    ]
  },
  {
    "id": 93,
    "client_id": "816948636-X",
    "username": "rrulton2k",
    "mount_point": null,
    "publish_acl": [
      {
        "id": "54c01455-5b4c-4f9b-849c-04def0a9b0bd",
        "topic": "$SYS/broker/messages/sent",
        "qos": 2
      }
    ],
    "subscribe_acl": []
  },
  {
    "id": 94,
    "client_id": "950100133-4",
    "username": "acrilley2l",
    "mount_point": null,
    "publish_acl": [
      {
        "id": "b0d844db-0502-4364-8612-24801d625fb3",
        "topic": "$SYS/broker/load/sockets/+",
        "qos": 1
      },
      {
        "id": "7a034b02-01b5-4934-9fbc-16a9a2d48061",
        "topic": "$SYS/broker/load/bytes/sent/+",
        "qos": 0
      }
    ],
    "subscribe_acl": []
  },
  {
    "id": 95,
    "client_id": "785957190-0",
    "username": "lduckett2m",
    "mount_point": null,
    "publish_acl": [
      {
        "id": "a1837e65-f820-42ab-a0be-3947916647d6",
        "topic": "$SYS/broker/version",
        "qos": 0
      },
      {
        "id": "071f3c6f-0b31-4e75-a763-35c07371d658",
        "topic": "$SYS/broker/clients/total",
        "qos": 1
      },
      {
        "id": "b8af6e7f-f98b-47a2-8e77-2ae3ee0d4738",
        "topic": "$SYS/broker/load/bytes/received/+",
        "qos": 0
      },
      {
        "id": "82777b79-45f4-4596-bd56-ee20cea3dfd6",
        "topic": "$SYS/broker/load/bytes/sent",
        "qos": 2
      }
    ],
    "subscribe_acl": [
      {
        "id": "528cd264-a22b-47fc-83fd-fcf9fe8bacd0",
        "topic": "$SYS/broker/uptime",
        "qos": 2
      },
      {
        "id": "435ed8f9-0677-4261-9ef1-f4fef7f65f44",
        "topic": "$SYS/broker/messages/received",
        "qos": 1
      },
      {
        "id": "8e1522a2-c4e0-48fa-b3fb-0a7319a83e27",
        "topic": "$SYS/broker/changeset",
        "qos": 0
      },
      {
        "id": "f88befbf-3743-45d7-b133-f37a4e92cc68",
        "topic": "$SYS/broker/version",
        "qos": 0
      },
      {
        "id": "06dd4d57-6b9a-41ff-be09-c47237219da6",
        "topic": "$SYS/broker/messages/retained/count",
        "qos": 0
      }
    ]
  },
  {
    "id": 96,
    "client_id": "453740457-4",
    "username": "ddungay2n",
    "mount_point": "/behance.net",
    "publish_acl": [
      {
        "id": "cd5b19b2-7eb0-4b75-8e79-662edb79e7b0",
        "topic": "$SYS/broker/clients/connected",
        "qos": 1
      },
      {
        "id": "411a79ae-9e2d-4c35-bdf4-96774baa4d0a",
        "topic": "$SYS/broker/messages/sent",
        "qos": 1
      }
    ],
    "subscribe_acl": []
  },
  {
    "id": 97,
    "client_id": "752671463-4",
    "username": "caleksandrikin2o",
    "mount_point": null,
    "publish_acl": [
      {
        "id": "b0ca3722-b34e-44da-b0a7-6034e865d2c0",
        "topic": "$SYS/broker/clients/connected",
        "qos": 2
      },
      {
        "id": "4fa28a10-a564-46a1-b860-55ed818e88fb",
        "topic": "$SYS/broker/load/connections/+",
        "qos": 0
      },
      {
        "id": "514f4407-9726-4efc-915e-210bb1db1fe1",
        "topic": "$SYS/broker/load/connections/+",
        "qos": 0
      }
    ],
    "subscribe_acl": []
  },
  {
    "id": 98,
    "client_id": "591042449-1",
    "username": "hfairhead2p",
    "mount_point": null,
    "publish_acl": [
      {
        "id": "72c74ce3-5b5a-4fc5-9dcd-5ed04c9885e6",
        "topic": "$SYS/broker/load/publish/dropped/+",
        "qos": 0
      }
    ],
    "subscribe_acl": [
      {
        "id": "91632eb2-ed41-49b3-8052-edceab614bac",
        "topic": "$SYS/broker/clients/connected",
        "qos": 0
      },
      {
        "id": "0383df3f-3ee7-46a9-a498-2917cc99cb26",
        "topic": "$SYS/broker/version",
        "qos": 2
      },
      {
        "id": "33e1a5b8-582b-47e3-ab58-871fae330740",
        "topic": "$SYS/broker/load/publish/sent/+",
        "qos": 1
      },
      {
        "id": "399e6dd5-2bd6-406d-940b-564ffb8c6e2a",
        "topic": "$SYS/broker/load/messages/received/+",
        "qos": 0
      },
      {
        "id": "a9e96f64-19a0-4007-93db-2ad0c23b36b7",
        "topic": "$SYS/broker/load/messages/received/+",
        "qos": 2
      }
    ]
  },
  {
    "id": 99,
    "client_id": "732661702-3",
    "username": "ccasaletto2q",
    "mount_point": "/amazon.co.jp",
    "publish_acl": [
      {
        "id": "17a6de92-6b72-4990-bcfa-481094a3d02e",
        "topic": "$SYS/broker/clients/connected",
        "qos": 1
      },
      {
        "id": "7b1722ec-f665-47dd-92a8-6d79347e6773",
        "topic": "USA/California/San Francisco/Silicon Valley",
        "qos": 1
      },
      {
        "id": "9fa02b66-f504-4f27-a519-3477decde450",
        "topic": "$SYS/broker/messages/stored",
        "qos": 1
      },
      {
        "id": "35d1b3f2-41ef-4266-a9b3-82faf124f5bf",
        "topic": "$SYS/broker/load/messages/received/+",
        "qos": 2
      }
    ],
    "subscribe_acl": []
  },
  {
    "id": 100,
    "client_id": "288992358-4",
    "username": "gdodimead2r",
    "mount_point": null,
    "publish_acl": [
      {
        "id": "a30f38da-d599-4306-b1ec-02eefea02ef1",
        "topic": "Germany/Bavaria/car/2382340923453/latitude",
        "qos": 0
      },
      {
        "id": "ad237923-c5ac-4654-9050-e6849031db0a",
        "topic": "$SYS/broker/changeset",
        "qos": 2
      },
      {
        "id": "a82eb3f6-f767-47bd-b618-a53dac5c10bc",
        "topic": "USA/California/San Francisco/Silicon Valley",
        "qos": 2
      },
      {
        "id": "828c5921-edfe-4ecf-bcc6-52ab4199c412",
        "topic": "$SYS/broker/messages/retained/count",
        "qos": 2
      }
    ],
    "subscribe_acl": [
      {
        "id": "fd700b83-c0db-4b4d-8280-bb1a909d2417",
        "topic": "$SYS/broker/clients/maximum",
        "qos": 1
      },
      {
        "id": "78027120-a65f-418f-8be2-86e07bd71b49",
        "topic": "$SYS/broker/messages/inflight",
        "qos": 2
      },
      {
        "id": "b2e4621e-efae-4a04-9ec8-eb07d10fc7c1",
        "topic": "$SYS/broker/clients/total",
        "qos": 0
      },
      {
        "id": "77370b54-68d1-46a3-89e6-b89f855bc662",
        "topic": "$SYS/broker/messages/sent",
        "qos": 1
      },
      {
        "id": "8753ab09-ddfa-4ba8-8e77-3ac406372881",
        "topic": "$SYS/broker/messages/publish/sent",
        "qos": 2
      }
    ]
  }
]